{
  "IMEI": "",
  "POSid": "",
  "CSid": "",
  "label": "GSK 2018",
  "metier": {
    "ranges": [
      { "rangeId": "0", "label": "RANGE T1" },
      { "rangeId": "1", "label": "RANGE T3" },
      { "rangeId": "2", "label": "RANGE T4" },
      { "rangeId": "3", "label": "RANGE T5" }
    ],
    "products": [
      {
        "label": "Triple Protection Menthe douce",
        "ean": "3 094 900 059 593",
        "clientCode": "",
        "family": "DENTIFRICES AQUAFRESH TUBES 75 ml",
        "brand": "AQUAFRESH",
        "categoryId": "0",
        "rangeId": "0",
        "range": { "rangeId": "0", "label": "RANGE T1" },
        "locationTypeId": "0",
        "propriety": "C"
      },
      {
        "label": "Triple Protection Blancheur ",
        "ean": "3 094 900 059 715",
        "clientCode": "",
        "family": "DENTIFRICES AQUAFRESH TUBES 75 ml",
        "brand": "AQUAFRESH",
        "categoryId": "0",
        "rangeId": "0",
        "range": { "rangeId": "0", "label": "RANGE T1" },
        "locationTypeId": "0",
        "propriety": "C"
      },
      {
        "label": "Blancheur &  Brillance    ",
        "ean": "3 094 900 059 692",
        "clientCode": "",
        "family": "DENTIFRICES AQUAFRESH TUBES 75 ml",
        "brand": "AQUAFRESH",
        "categoryId": "0",
        "rangeId": "0",
        "range": { "rangeId": "0", "label": "RANGE T1" },
        "locationTypeId": "0",
        "propriety": "C"
      },
      {
        "label": "Triple Protection menthe Fraîche SAP",
        "ean": "8 016 825 926 687",
        "clientCode": "",
        "family": "DENTIFRICES AQUAFRESH TUBES 75 ml",
        "brand": "AQUAFRESH",
        "categoryId": "0",
        "rangeId": "0",
        "range": { "rangeId": "0", "label": "RANGE T1" },
        "locationTypeId": "0",
        "propriety": "C"
      },
      {
        "label": "Intense Clean Fraîcheur",
        "ean": "5 054 563 007 315",
        "clientCode": "",
        "family": "DENTIFRICES AQUAFRESH TUBES 75 ml",
        "brand": "AQUAFRESH",
        "categoryId": "0",
        "rangeId": "0",
        "range": { "rangeId": "0", "label": "RANGE T1" },
        "locationTypeId": "0",
        "propriety": "C"
      },
      {
        "label": "Triple Protection Blancheur doseur 100ml",
        "ean": "3 094 900 059 722",
        "clientCode": "",
        "family": "DENTIFRICES AQUAFRESH DOSEURS 100ml",
        "brand": "AQUAFRESH",
        "categoryId": "0",
        "rangeId": "0",
        "range": { "rangeId": "0", "label": "RANGE T1" },
        "locationTypeId": "0",
        "propriety": "C"
      },
      {
        "label": "Pack Familial medium",
        "ean": "3 094 905 502 094",
        "clientCode": "",
        "family": "BROSSES A DENTS AQUAFRESH ",
        "brand": "AQUAFRESH",
        "categoryId": "0",
        "rangeId": "0",
        "range": { "rangeId": "0", "label": "RANGE T1" },
        "locationTypeId": "0",
        "propriety": "C"
      },
      {
        "label": "Flex souple",
        "ean": "3 094 900 059 104",
        "clientCode": "",
        "family": "BROSSES A DENTS AQUAFRESH ",
        "brand": "AQUAFRESH",
        "categoryId": "0",
        "rangeId": "0",
        "range": { "rangeId": "0", "label": "RANGE T1" },
        "locationTypeId": "0",
        "propriety": "O"
      },
      {
        "label": "Flex medium",
        "ean": "3 094 900 059 111",
        "clientCode": "",
        "family": "BROSSES A DENTS AQUAFRESH ",
        "brand": "AQUAFRESH",
        "categoryId": "0",
        "rangeId": "0",
        "range": { "rangeId": "0", "label": "RANGE T1" },
        "locationTypeId": "0",
        "propriety": "C"
      },
      {
        "label": "Inter Espaces Souple",
        "ean": "3 094 900 059 432",
        "clientCode": "",
        "family": "BROSSES A DENTS AQUAFRESH ",
        "brand": "AQUAFRESH",
        "categoryId": "0",
        "rangeId": "0",
        "range": { "rangeId": "0", "label": "RANGE T1" },
        "locationTypeId": "0",
        "propriety": "C"
      },
      {
        "label": "Inter Espaces Medium",
        "ean": "3 094 900 059 449",
        "clientCode": "",
        "family": "BROSSES A DENTS AQUAFRESH ",
        "brand": "AQUAFRESH",
        "categoryId": "0",
        "rangeId": "0",
        "range": { "rangeId": "0", "label": "RANGE T1" },
        "locationTypeId": "0",
        "propriety": "O"
      },
      {
        "label": "HD White souple",
        "ean": "3 094 905 001 092",
        "clientCode": "",
        "family": "BROSSES A DENTS AQUAFRESH ",
        "brand": "AQUAFRESH",
        "categoryId": "0",
        "rangeId": "0",
        "range": { "rangeId": "0", "label": "RANGE T1" },
        "locationTypeId": "0",
        "propriety": "C"
      },
      {
        "label": "Intense Clean Medium",
        "ean": "5 054 563 008 060",
        "clientCode": "",
        "family": "BROSSES A DENTS AQUAFRESH ",
        "brand": "AQUAFRESH",
        "categoryId": "0",
        "rangeId": "0",
        "range": { "rangeId": "0", "label": "RANGE T1" },
        "locationTypeId": "0",
        "propriety": "C"
      },
      {
        "label": "KIT Dents de Lait 2-5 ANS",
        "ean": "3 094 900 062 159",
        "clientCode": "",
        "family": "GAMME ENFANT",
        "brand": "AQUAFRESH",
        "categoryId": "0",
        "rangeId": "0",
        "range": { "rangeId": "0", "label": "RANGE T1" },
        "locationTypeId": "0",
        "propriety": "C"
      },
      {
        "label": "Dentifrice Junior tube 75ml",
        "ean": "3 094 905 000 019",
        "clientCode": "",
        "family": "GAMME ENFANT",
        "brand": "AQUAFRESH",
        "categoryId": "0",
        "rangeId": "0",
        "range": { "rangeId": "0", "label": "RANGE T1" },
        "locationTypeId": "0",
        "propriety": "C"
      },
      {
        "label": "BAD Junior  ",
        "ean": "3 094 900 059 180",
        "clientCode": "",
        "family": "GAMME ENFANT",
        "brand": "AQUAFRESH",
        "categoryId": "0",
        "rangeId": "0",
        "range": { "rangeId": "0", "label": "RANGE T1" },
        "locationTypeId": "0",
        "propriety": "C"
      },
      {
        "label": "Pro-Email Protection Quotidienne ",
        "ean": "3 094 905 001 047",
        "clientCode": "",
        "family": "DENTIFRICES TUBES SENSODYNE",
        "brand": "SENSODYNE",
        "categoryId": "0",
        "rangeId": "0",
        "range": { "rangeId": "0", "label": "RANGE T1" },
        "locationTypeId": "0",
        "propriety": "C"
      },
      {
        "label": "Anti-caries ",
        "ean": "3 389 181 130 759",
        "clientCode": "",
        "family": "DENTIFRICES TUBES SENSODYNE",
        "brand": "SENSODYNE",
        "categoryId": "0",
        "rangeId": "0",
        "range": { "rangeId": "0", "label": "RANGE T1" },
        "locationTypeId": "0",
        "propriety": "C"
      },
      {
        "label": "Cure Sensibilité",
        "ean": "3 094 901 360 001",
        "clientCode": "",
        "family": "DENTIFRICES TUBES SENSODYNE",
        "brand": "SENSODYNE",
        "categoryId": "0",
        "rangeId": "0",
        "range": { "rangeId": "0", "label": "RANGE T1" },
        "locationTypeId": "0",
        "propriety": "C"
      },
      {
        "label": "Soin Gencives 24H",
        "ean": "5 054 563 026 439",
        "clientCode": "",
        "family": "DENTIFRICES TUBES SENSODYNE",
        "brand": "SENSODYNE",
        "categoryId": "0",
        "rangeId": "0",
        "range": { "rangeId": "0", "label": "RANGE T1" },
        "locationTypeId": "0",
        "propriety": "O"
      },
      {
        "label": "Soin Complet 24H",
        "ean": "5 054 563 026 477",
        "clientCode": "",
        "family": "DENTIFRICES TUBES SENSODYNE",
        "brand": "SENSODYNE",
        "categoryId": "0",
        "rangeId": "0",
        "range": { "rangeId": "0", "label": "RANGE T1" },
        "locationTypeId": "0",
        "propriety": "C"
      },
      {
        "label": "Soin Blancheur 24H",
        "ean": "5 054 563 026 392",
        "clientCode": "",
        "family": "DENTIFRICES TUBES SENSODYNE",
        "brand": "SENSODYNE",
        "categoryId": "0",
        "rangeId": "0",
        "range": { "rangeId": "0", "label": "RANGE T1" },
        "locationTypeId": "0",
        "propriety": "O"
      },
      {
        "label": "Soin Extra Fresh 24H",
        "ean": "5 054 563 002 358",
        "clientCode": "",
        "family": "DENTIFRICES TUBES SENSODYNE",
        "brand": "SENSODYNE",
        "categoryId": "0",
        "rangeId": "0",
        "range": { "rangeId": "0", "label": "RANGE T1" },
        "locationTypeId": "0",
        "propriety": "C"
      },
      {
        "label": "Soin Nettoyage 24H",
        "ean": "5 054 563 015 440",
        "clientCode": "",
        "family": "DENTIFRICES TUBES SENSODYNE",
        "brand": "SENSODYNE",
        "categoryId": "0",
        "rangeId": "0",
        "range": { "rangeId": "0", "label": "RANGE T1" },
        "locationTypeId": "0",
        "propriety": "C"
      },
      {
        "label": "Répare & protège ",
        "ean": "3 094 905 000 033",
        "clientCode": "",
        "family": "DENTIFRICES TUBES SENSODYNE",
        "brand": "SENSODYNE",
        "categoryId": "0",
        "rangeId": "0",
        "range": { "rangeId": "0", "label": "RANGE T1" },
        "locationTypeId": "0",
        "propriety": "O"
      },
      {
        "label": "Répare & protège blancheur",
        "ean": "3 094 905 000 316",
        "clientCode": "",
        "family": "DENTIFRICES TUBES SENSODYNE",
        "brand": "SENSODYNE",
        "categoryId": "0",
        "rangeId": "0",
        "range": { "rangeId": "0", "label": "RANGE T1" },
        "locationTypeId": "0",
        "propriety": "C"
      },
      {
        "label": "Multi Protection",
        "ean": "3 094 905 000 859",
        "clientCode": "",
        "family": "DENTIFRICES TUBES SENSODYNE",
        "brand": "SENSODYNE",
        "categoryId": "0",
        "rangeId": "0",
        "range": { "rangeId": "0", "label": "RANGE T1" },
        "locationTypeId": "0",
        "propriety": "O"
      },
      {
        "label": "Rapide Action Extra Fresh",
        "ean": "5 054 563 010 278",
        "clientCode": "",
        "family": "DENTIFRICES TUBES SENSODYNE",
        "brand": "SENSODYNE",
        "categoryId": "0",
        "rangeId": "0",
        "range": { "rangeId": "0", "label": "RANGE T1" },
        "locationTypeId": "0",
        "propriety": "O"
      },
      {
        "label": "Rapide Action Blancheur",
        "ean": "5 054 563 024 558",
        "clientCode": "",
        "family": "DENTIFRICES TUBES SENSODYNE",
        "brand": "SENSODYNE",
        "categoryId": "0",
        "rangeId": "0",
        "range": { "rangeId": "0", "label": "RANGE T1" },
        "locationTypeId": "0",
        "propriety": "C"
      },
      {
        "label": "Multi Protection Blancheur",
        "ean": "5 054 563 038 821",
        "clientCode": "",
        "family": "DENTIFRICES TUBES SENSODYNE",
        "brand": "SENSODYNE",
        "categoryId": "0",
        "rangeId": "0",
        "range": { "rangeId": "0", "label": "RANGE T1" },
        "locationTypeId": "0",
        "propriety": "C"
      },
      {
        "label": "Soin Fluor Actif",
        "ean": "5 054 563 034 922",
        "clientCode": "",
        "family": "DENTIFRICES TUBES SENSODYNE",
        "brand": "SENSODYNE",
        "categoryId": "0",
        "rangeId": "0",
        "range": { "rangeId": "0", "label": "RANGE T1" },
        "locationTypeId": "0",
        "propriety": "C"
      },
      {
        "label": "Soin Contrôle Plaque",
        "ean": "5 054 563 041 319",
        "clientCode": "",
        "family": "DENTIFRICES TUBES SENSODYNE",
        "brand": "SENSODYNE",
        "categoryId": "0",
        "rangeId": "0",
        "range": { "rangeId": "0", "label": "RANGE T1" },
        "locationTypeId": "0",
        "propriety": "C"
      },
      {
        "label": "Doseur Soin Blancheur 100ml",
        "ean": "5 054 563 049 414",
        "clientCode": "",
        "family": "DENTIFRICES TUBES SENSODYNE",
        "brand": "SENSODYNE",
        "categoryId": "0",
        "rangeId": "0",
        "range": { "rangeId": "0", "label": "RANGE T1" },
        "locationTypeId": "0",
        "propriety": "C"
      },
      {
        "label": "Soin & Précision Extra Souple",
        "ean": "3 094 901 304 302",
        "clientCode": "",
        "family": "BROSSES A DENTS SENSODYNE",
        "brand": "SENSODYNE",
        "categoryId": "0",
        "rangeId": "0",
        "range": { "rangeId": "0", "label": "RANGE T1" },
        "locationTypeId": "0",
        "propriety": "C"
      },
      {
        "label": "Soin &Précision Souple",
        "ean": "3 094 901 304 319",
        "clientCode": "",
        "family": "BROSSES A DENTS SENSODYNE",
        "brand": "SENSODYNE",
        "categoryId": "0",
        "rangeId": "0",
        "range": { "rangeId": "0", "label": "RANGE T1" },
        "locationTypeId": "0",
        "propriety": "O"
      },
      {
        "label": "Soin & Précision Medium",
        "ean": "3 094 901 330 004",
        "clientCode": "",
        "family": "BROSSES A DENTS SENSODYNE",
        "brand": "SENSODYNE",
        "categoryId": "0",
        "rangeId": "0",
        "range": { "rangeId": "0", "label": "RANGE T1" },
        "locationTypeId": "0",
        "propriety": "C"
      },
      {
        "label": "Soin Gencives Extra Souple",
        "ean": "3 094 901 410 003",
        "clientCode": "",
        "family": "BROSSES A DENTS SENSODYNE",
        "brand": "SENSODYNE",
        "categoryId": "0",
        "rangeId": "0",
        "range": { "rangeId": "0", "label": "RANGE T1" },
        "locationTypeId": "0",
        "propriety": "C"
      },
      {
        "label": "Soin Gencives Souple",
        "ean": "3 094 901 390 008",
        "clientCode": "",
        "family": "BROSSES A DENTS SENSODYNE",
        "brand": "SENSODYNE",
        "categoryId": "0",
        "rangeId": "0",
        "range": { "rangeId": "0", "label": "RANGE T1" },
        "locationTypeId": "0",
        "propriety": "C"
      },
      {
        "label": "Multi Protection Souple",
        "ean": "3 094 905 001 115",
        "clientCode": "",
        "family": "BROSSES A DENTS SENSODYNE",
        "brand": "SENSODYNE",
        "categoryId": "0",
        "rangeId": "0",
        "range": { "rangeId": "0", "label": "RANGE T1" },
        "locationTypeId": "0",
        "propriety": "C"
      },
      {
        "label": "Multi Protection Médium",
        "ean": "3 094 905 001 122",
        "clientCode": "",
        "family": "BROSSES A DENTS SENSODYNE",
        "brand": "SENSODYNE",
        "categoryId": "0",
        "rangeId": "0",
        "range": { "rangeId": "0", "label": "RANGE T1" },
        "locationTypeId": "0",
        "propriety": "C"
      },
      {
        "label": "Répare et Protège Extra Souple",
        "ean": "5 054 563 022 240",
        "clientCode": "",
        "family": "BROSSES A DENTS SENSODYNE",
        "brand": "SENSODYNE",
        "categoryId": "0",
        "rangeId": "0",
        "range": { "rangeId": "0", "label": "RANGE T1" },
        "locationTypeId": "0",
        "propriety": "C"
      },
      {
        "label": "Répare et Protège Souple",
        "ean": "5 054 563 022 295",
        "clientCode": "",
        "family": "BROSSES A DENTS SENSODYNE",
        "brand": "SENSODYNE",
        "categoryId": "0",
        "rangeId": "0",
        "range": { "rangeId": "0", "label": "RANGE T1" },
        "locationTypeId": "0",
        "propriety": "O"
      },
      {
        "label": "Soin Interdentaires Souple",
        "ean": "5 054 563 022 196",
        "clientCode": "",
        "family": "BROSSES A DENTS SENSODYNE",
        "brand": "SENSODYNE",
        "categoryId": "0",
        "rangeId": "0",
        "range": { "rangeId": "0", "label": "RANGE T1" },
        "locationTypeId": "0",
        "propriety": "C"
      },
      {
        "label": "Rapide Action Souple",
        "ean": "5 054 563 039 620",
        "clientCode": "",
        "family": "BROSSES A DENTS SENSODYNE",
        "brand": "SENSODYNE",
        "categoryId": "0",
        "rangeId": "0",
        "range": { "rangeId": "0", "label": "RANGE T1" },
        "locationTypeId": "0",
        "propriety": "C"
      },
      {
        "label": "Rapide Action Medium",
        "ean": "5 054 563 039 651",
        "clientCode": "",
        "family": "BROSSES A DENTS SENSODYNE",
        "brand": "SENSODYNE",
        "categoryId": "0",
        "rangeId": "0",
        "range": { "rangeId": "0", "label": "RANGE T1" },
        "locationTypeId": "0",
        "propriety": "C"
      },
      {
        "label": "Sensodyne Bain de bouche Menthe Fraîche 500 ML",
        "ean": "3 094 905 001 306",
        "clientCode": "",
        "family": "BAIN DE BOUCHE & ACCESSOIRES SENSODYNE",
        "brand": "SENSODYNE",
        "categoryId": "0",
        "rangeId": "0",
        "range": { "rangeId": "0", "label": "RANGE T1" },
        "locationTypeId": "0",
        "propriety": "C"
      },
      {
        "label": "Nettoyant Anti bacterien X 108 cps",
        "ean": "3 094 900 666 210",
        "clientCode": "",
        "family": "NETTOYANTS",
        "brand": "polident",
        "categoryId": "0",
        "rangeId": "0",
        "range": { "rangeId": "0", "label": "RANGE T1" },
        "locationTypeId": "0",
        "propriety": "C"
      },
      {
        "label": "Nettoyant Anti Bactérien X36 comprimés",
        "ean": "3 094 905 000 743",
        "clientCode": "",
        "family": "NETTOYANTS",
        "brand": "polident",
        "categoryId": "0",
        "rangeId": "0",
        "range": { "rangeId": "0", "label": "RANGE T1" },
        "locationTypeId": "0",
        "propriety": "C"
      },
      {
        "label": "Nettoyant Fraîcheur Intense X36 comprimés",
        "ean": "3 094 905 000 750",
        "clientCode": "",
        "family": "NETTOYANTS",
        "brand": "polident",
        "categoryId": "0",
        "rangeId": "0",
        "range": { "rangeId": "0", "label": "RANGE T1" },
        "locationTypeId": "0",
        "propriety": "C"
      },
      {
        "label": "Nettoyant Pureté Intégrale X36 comprimés",
        "ean": "3 094 905 000 736",
        "clientCode": "",
        "family": "NETTOYANTS",
        "brand": "polident",
        "categoryId": "0",
        "rangeId": "0",
        "range": { "rangeId": "0", "label": "RANGE T1" },
        "locationTypeId": "0",
        "propriety": "C"
      },
      {
        "label": "Nettoyant 3 minutes X36 comprimés",
        "ean": "3 094 905 001 009",
        "clientCode": "",
        "family": "NETTOYANTS",
        "brand": "polident",
        "categoryId": "0",
        "rangeId": "0",
        "range": { "rangeId": "0", "label": "RANGE T1" },
        "locationTypeId": "0",
        "propriety": "C"
      },
      {
        "label": "Nettoyant Total Action X36 comprimés",
        "ean": "5 054 563 022 929",
        "clientCode": "",
        "family": "NETTOYANTS",
        "brand": "polident",
        "categoryId": "0",
        "rangeId": "0",
        "range": { "rangeId": "0", "label": "RANGE T1" },
        "locationTypeId": "0",
        "propriety": "C"
      },
      {
        "label": "Crème adhésive Originale tube 40g",
        "ean": "3 094 905 000 804",
        "clientCode": "",
        "family": "FIXATIFS",
        "brand": "polident",
        "categoryId": "0",
        "rangeId": "0",
        "range": { "rangeId": "0", "label": "RANGE T1" },
        "locationTypeId": "0",
        "propriety": "C"
      },
      {
        "label": "Crème adhésive Original 70g",
        "ean": "3 094 905 000 309",
        "clientCode": "",
        "family": "FIXATIFS",
        "brand": "polident",
        "categoryId": "0",
        "rangeId": "0",
        "range": { "rangeId": "0", "label": "RANGE T1" },
        "locationTypeId": "0",
        "propriety": "C"
      },
      {
        "label": "Crème adhésive Soin et Tolérance 40g",
        "ean": "3 094 905 000 811",
        "clientCode": "",
        "family": "FIXATIFS",
        "brand": "polident",
        "categoryId": "0",
        "rangeId": "0",
        "range": { "rangeId": "0", "label": "RANGE T1" },
        "locationTypeId": "0",
        "propriety": "O"
      },
      {
        "label": "Crème adhésive Soin et Tolérance 70g",
        "ean": "3 094 905 000 729",
        "clientCode": "",
        "family": "FIXATIFS",
        "brand": "polident",
        "categoryId": "0",
        "rangeId": "0",
        "range": { "rangeId": "0", "label": "RANGE T1" },
        "locationTypeId": "0",
        "propriety": "C"
      },
      {
        "label": "Crème adhésive Total Action 40g",
        "ean": "5 054 563 003 386",
        "clientCode": "",
        "family": "FIXATIFS",
        "brand": "polident",
        "categoryId": "0",
        "rangeId": "0",
        "range": { "rangeId": "0", "label": "RANGE T1" },
        "locationTypeId": "0",
        "propriety": "C"
      },
      {
        "label": "Crème adhésive Total Action 70g",
        "ean": "5 054 563 019 523",
        "clientCode": "",
        "family": "FIXATIFS",
        "brand": "polident",
        "categoryId": "0",
        "rangeId": "0",
        "range": { "rangeId": "0", "label": "RANGE T1" },
        "locationTypeId": "0",
        "propriety": "C"
      },
      {
        "label": "Crème adhésive  Maximum Contrôle",
        "ean": "5 054 563 033 642",
        "clientCode": "",
        "family": "FIXATIFS",
        "brand": "polident",
        "categoryId": "0",
        "rangeId": "0",
        "range": { "rangeId": "0", "label": "RANGE T1" },
        "locationTypeId": "0",
        "propriety": "C"
      },
      {
        "label": "Triple Protection Menthe douce",
        "ean": "3 094 900 059 593",
        "clientCode": "",
        "family": "DENTIFRICES AQUAFRESH TUBES 75 ml",
        "brand": "AQUAFRESH",
        "categoryId": "0",
        "rangeId": "1",
        "range": { "rangeId": "1", "label": "RANGE T3" },
        "locationTypeId": "0",
        "propriety": "C"
      },
      {
        "label": "Triple Protection Blancheur ",
        "ean": "3 094 900 059 715",
        "clientCode": "",
        "family": "DENTIFRICES AQUAFRESH TUBES 75 ml",
        "brand": "AQUAFRESH",
        "categoryId": "0",
        "rangeId": "1",
        "range": { "rangeId": "1", "label": "RANGE T3" },
        "locationTypeId": "0",
        "propriety": "C"
      },
      {
        "label": "Blancheur &  Brillance    ",
        "ean": "3 094 900 059 692",
        "clientCode": "",
        "family": "DENTIFRICES AQUAFRESH TUBES 75 ml",
        "brand": "AQUAFRESH",
        "categoryId": "0",
        "rangeId": "1",
        "range": { "rangeId": "1", "label": "RANGE T3" },
        "locationTypeId": "0",
        "propriety": "C"
      },
      {
        "label": "Triple Protection menthe Fraîche SAP",
        "ean": "8 016 825 926 687",
        "clientCode": "",
        "family": "DENTIFRICES AQUAFRESH TUBES 75 ml",
        "brand": "AQUAFRESH",
        "categoryId": "0",
        "rangeId": "1",
        "range": { "rangeId": "1", "label": "RANGE T3" },
        "locationTypeId": "0",
        "propriety": "C"
      },
      {
        "label": "Intense Clean Fraîcheur",
        "ean": "5 054 563 007 315",
        "clientCode": "",
        "family": "DENTIFRICES AQUAFRESH TUBES 75 ml",
        "brand": "AQUAFRESH",
        "categoryId": "0",
        "rangeId": "1",
        "range": { "rangeId": "1", "label": "RANGE T3" },
        "locationTypeId": "0",
        "propriety": "C"
      },
      {
        "label": "Triple Protection Blancheur doseur 100ml",
        "ean": "3 094 900 059 722",
        "clientCode": "",
        "family": "DENTIFRICES AQUAFRESH DOSEURS 100ml",
        "brand": "AQUAFRESH",
        "categoryId": "0",
        "rangeId": "1",
        "range": { "rangeId": "1", "label": "RANGE T3" },
        "locationTypeId": "0",
        "propriety": "C"
      },
      {
        "label": "Pack Familial medium",
        "ean": "3 094 905 502 094",
        "clientCode": "",
        "family": "BROSSES A DENTS AQUAFRESH ",
        "brand": "AQUAFRESH",
        "categoryId": "0",
        "rangeId": "1",
        "range": { "rangeId": "1", "label": "RANGE T3" },
        "locationTypeId": "0",
        "propriety": "C"
      },
      {
        "label": "Flex souple",
        "ean": "3 094 900 059 104",
        "clientCode": "",
        "family": "BROSSES A DENTS AQUAFRESH ",
        "brand": "AQUAFRESH",
        "categoryId": "0",
        "rangeId": "1",
        "range": { "rangeId": "1", "label": "RANGE T3" },
        "locationTypeId": "0",
        "propriety": "O"
      },
      {
        "label": "Flex medium",
        "ean": "3 094 900 059 111",
        "clientCode": "",
        "family": "BROSSES A DENTS AQUAFRESH ",
        "brand": "AQUAFRESH",
        "categoryId": "0",
        "rangeId": "1",
        "range": { "rangeId": "1", "label": "RANGE T3" },
        "locationTypeId": "0",
        "propriety": "C"
      },
      {
        "label": "Inter Espaces Souple",
        "ean": "3 094 900 059 432",
        "clientCode": "",
        "family": "BROSSES A DENTS AQUAFRESH ",
        "brand": "AQUAFRESH",
        "categoryId": "0",
        "rangeId": "1",
        "range": { "rangeId": "1", "label": "RANGE T3" },
        "locationTypeId": "0",
        "propriety": "O"
      },
      {
        "label": "Inter Espaces Medium",
        "ean": "3 094 900 059 449",
        "clientCode": "",
        "family": "BROSSES A DENTS AQUAFRESH ",
        "brand": "AQUAFRESH",
        "categoryId": "0",
        "rangeId": "1",
        "range": { "rangeId": "1", "label": "RANGE T3" },
        "locationTypeId": "0",
        "propriety": "O"
      },
      {
        "label": "HD White souple",
        "ean": "3 094 905 001 092",
        "clientCode": "",
        "family": "BROSSES A DENTS AQUAFRESH ",
        "brand": "AQUAFRESH",
        "categoryId": "0",
        "rangeId": "1",
        "range": { "rangeId": "1", "label": "RANGE T3" },
        "locationTypeId": "0",
        "propriety": "C"
      },
      {
        "label": "Intense Clean Medium",
        "ean": "5 054 563 008 060",
        "clientCode": "",
        "family": "BROSSES A DENTS AQUAFRESH ",
        "brand": "AQUAFRESH",
        "categoryId": "0",
        "rangeId": "1",
        "range": { "rangeId": "1", "label": "RANGE T3" },
        "locationTypeId": "0",
        "propriety": "O"
      },
      {
        "label": "KIT Dents de Lait 2-5 ANS",
        "ean": "3 094 900 062 159",
        "clientCode": "",
        "family": "GAMME ENFANT",
        "brand": "AQUAFRESH",
        "categoryId": "0",
        "rangeId": "1",
        "range": { "rangeId": "1", "label": "RANGE T3" },
        "locationTypeId": "0",
        "propriety": "O"
      },
      {
        "label": "Dentifrice Junior tube 75ml",
        "ean": "3 094 905 000 019",
        "clientCode": "",
        "family": "GAMME ENFANT",
        "brand": "AQUAFRESH",
        "categoryId": "0",
        "rangeId": "1",
        "range": { "rangeId": "1", "label": "RANGE T3" },
        "locationTypeId": "0",
        "propriety": "C"
      },
      {
        "label": "BAD Junior  ",
        "ean": "3 094 900 059 180",
        "clientCode": "",
        "family": "GAMME ENFANT",
        "brand": "AQUAFRESH",
        "categoryId": "0",
        "rangeId": "1",
        "range": { "rangeId": "1", "label": "RANGE T3" },
        "locationTypeId": "0",
        "propriety": "C"
      },
      {
        "label": "Pro-Email Protection Quotidienne ",
        "ean": "3 094 905 001 047",
        "clientCode": "",
        "family": "DENTIFRICES TUBES SENSODYNE",
        "brand": "SENSODYNE",
        "categoryId": "0",
        "rangeId": "1",
        "range": { "rangeId": "1", "label": "RANGE T3" },
        "locationTypeId": "0",
        "propriety": "C"
      },
      {
        "label": "Anti-caries ",
        "ean": "3 389 181 130 759",
        "clientCode": "",
        "family": "DENTIFRICES TUBES SENSODYNE",
        "brand": "SENSODYNE",
        "categoryId": "0",
        "rangeId": "1",
        "range": { "rangeId": "1", "label": "RANGE T3" },
        "locationTypeId": "0",
        "propriety": "C"
      },
      {
        "label": "Cure Sensibilité",
        "ean": "3 094 901 360 001",
        "clientCode": "",
        "family": "DENTIFRICES TUBES SENSODYNE",
        "brand": "SENSODYNE",
        "categoryId": "0",
        "rangeId": "1",
        "range": { "rangeId": "1", "label": "RANGE T3" },
        "locationTypeId": "0",
        "propriety": "C"
      },
      {
        "label": "Soin Gencives 24H",
        "ean": "5 054 563 026 439",
        "clientCode": "",
        "family": "DENTIFRICES TUBES SENSODYNE",
        "brand": "SENSODYNE",
        "categoryId": "0",
        "rangeId": "1",
        "range": { "rangeId": "1", "label": "RANGE T3" },
        "locationTypeId": "0",
        "propriety": "O"
      },
      {
        "label": "Soin Complet 24H",
        "ean": "5 054 563 026 477",
        "clientCode": "",
        "family": "DENTIFRICES TUBES SENSODYNE",
        "brand": "SENSODYNE",
        "categoryId": "0",
        "rangeId": "1",
        "range": { "rangeId": "1", "label": "RANGE T3" },
        "locationTypeId": "0",
        "propriety": "C"
      },
      {
        "label": "Soin Blancheur 24H",
        "ean": "5 054 563 026 392",
        "clientCode": "",
        "family": "DENTIFRICES TUBES SENSODYNE",
        "brand": "SENSODYNE",
        "categoryId": "0",
        "rangeId": "1",
        "range": { "rangeId": "1", "label": "RANGE T3" },
        "locationTypeId": "0",
        "propriety": "O"
      },
      {
        "label": "Soin Extra Fresh 24H",
        "ean": "5 054 563 002 358",
        "clientCode": "",
        "family": "DENTIFRICES TUBES SENSODYNE",
        "brand": "SENSODYNE",
        "categoryId": "0",
        "rangeId": "1",
        "range": { "rangeId": "1", "label": "RANGE T3" },
        "locationTypeId": "0",
        "propriety": "O"
      },
      {
        "label": "Soin Nettoyage 24H",
        "ean": "5 054 563 015 440",
        "clientCode": "",
        "family": "DENTIFRICES TUBES SENSODYNE",
        "brand": "SENSODYNE",
        "categoryId": "0",
        "rangeId": "1",
        "range": { "rangeId": "1", "label": "RANGE T3" },
        "locationTypeId": "0",
        "propriety": "C"
      },
      {
        "label": "Répare & protège ",
        "ean": "3 094 905 000 033",
        "clientCode": "",
        "family": "DENTIFRICES TUBES SENSODYNE",
        "brand": "SENSODYNE",
        "categoryId": "0",
        "rangeId": "1",
        "range": { "rangeId": "1", "label": "RANGE T3" },
        "locationTypeId": "0",
        "propriety": "O"
      },
      {
        "label": "Répare & protège blancheur",
        "ean": "3 094 905 000 316",
        "clientCode": "",
        "family": "DENTIFRICES TUBES SENSODYNE",
        "brand": "SENSODYNE",
        "categoryId": "0",
        "rangeId": "1",
        "range": { "rangeId": "1", "label": "RANGE T3" },
        "locationTypeId": "0",
        "propriety": "C"
      },
      {
        "label": "Multi Protection",
        "ean": "3 094 905 000 859",
        "clientCode": "",
        "family": "DENTIFRICES TUBES SENSODYNE",
        "brand": "SENSODYNE",
        "categoryId": "0",
        "rangeId": "1",
        "range": { "rangeId": "1", "label": "RANGE T3" },
        "locationTypeId": "0",
        "propriety": "O"
      },
      {
        "label": "Rapide Action Extra Fresh",
        "ean": "5 054 563 010 278",
        "clientCode": "",
        "family": "DENTIFRICES TUBES SENSODYNE",
        "brand": "SENSODYNE",
        "categoryId": "0",
        "rangeId": "1",
        "range": { "rangeId": "1", "label": "RANGE T3" },
        "locationTypeId": "0",
        "propriety": "O"
      },
      {
        "label": "Rapide Action Blancheur",
        "ean": "5 054 563 024 558",
        "clientCode": "",
        "family": "DENTIFRICES TUBES SENSODYNE",
        "brand": "SENSODYNE",
        "categoryId": "0",
        "rangeId": "1",
        "range": { "rangeId": "1", "label": "RANGE T3" },
        "locationTypeId": "0",
        "propriety": "C"
      },
      {
        "label": "Multi Protection Blancheur",
        "ean": "5 054 563 038 821",
        "clientCode": "",
        "family": "DENTIFRICES TUBES SENSODYNE",
        "brand": "SENSODYNE",
        "categoryId": "0",
        "rangeId": "1",
        "range": { "rangeId": "1", "label": "RANGE T3" },
        "locationTypeId": "0",
        "propriety": "O"
      },
      {
        "label": "Soin Fluor Actif",
        "ean": "5 054 563 034 922",
        "clientCode": "",
        "family": "DENTIFRICES TUBES SENSODYNE",
        "brand": "SENSODYNE",
        "categoryId": "0",
        "rangeId": "1",
        "range": { "rangeId": "1", "label": "RANGE T3" },
        "locationTypeId": "0",
        "propriety": "C"
      },
      {
        "label": "Soin Contrôle Plaque",
        "ean": "5 054 563 041 319",
        "clientCode": "",
        "family": "DENTIFRICES TUBES SENSODYNE",
        "brand": "SENSODYNE",
        "categoryId": "0",
        "rangeId": "1",
        "range": { "rangeId": "1", "label": "RANGE T3" },
        "locationTypeId": "0",
        "propriety": "C"
      },
      {
        "label": "Doseur Soin Blancheur 100ml",
        "ean": "5 054 563 049 414",
        "clientCode": "",
        "family": "DENTIFRICES TUBES SENSODYNE",
        "brand": "SENSODYNE",
        "categoryId": "0",
        "rangeId": "1",
        "range": { "rangeId": "1", "label": "RANGE T3" },
        "locationTypeId": "0",
        "propriety": "C"
      },
      {
        "label": "Soin & Précision Extra Souple",
        "ean": "3 094 901 304 302",
        "clientCode": "",
        "family": "BROSSES A DENTS SENSODYNE",
        "brand": "SENSODYNE",
        "categoryId": "0",
        "rangeId": "1",
        "range": { "rangeId": "1", "label": "RANGE T3" },
        "locationTypeId": "0",
        "propriety": "C"
      },
      {
        "label": "Soin &Précision Souple",
        "ean": "3 094 901 304 319",
        "clientCode": "",
        "family": "BROSSES A DENTS SENSODYNE",
        "brand": "SENSODYNE",
        "categoryId": "0",
        "rangeId": "1",
        "range": { "rangeId": "1", "label": "RANGE T3" },
        "locationTypeId": "0",
        "propriety": "O"
      },
      {
        "label": "Soin & Précision Medium",
        "ean": "3 094 901 330 004",
        "clientCode": "",
        "family": "BROSSES A DENTS SENSODYNE",
        "brand": "SENSODYNE",
        "categoryId": "0",
        "rangeId": "1",
        "range": { "rangeId": "1", "label": "RANGE T3" },
        "locationTypeId": "0",
        "propriety": "C"
      },
      {
        "label": "Soin Gencives Extra Souple",
        "ean": "3 094 901 410 003",
        "clientCode": "",
        "family": "BROSSES A DENTS SENSODYNE",
        "brand": "SENSODYNE",
        "categoryId": "0",
        "rangeId": "1",
        "range": { "rangeId": "1", "label": "RANGE T3" },
        "locationTypeId": "0",
        "propriety": "C"
      },
      {
        "label": "Soin Gencives Souple",
        "ean": "3 094 901 390 008",
        "clientCode": "",
        "family": "BROSSES A DENTS SENSODYNE",
        "brand": "SENSODYNE",
        "categoryId": "0",
        "rangeId": "1",
        "range": { "rangeId": "1", "label": "RANGE T3" },
        "locationTypeId": "0",
        "propriety": "O"
      },
      {
        "label": "Multi Protection Souple",
        "ean": "3 094 905 001 115",
        "clientCode": "",
        "family": "BROSSES A DENTS SENSODYNE",
        "brand": "SENSODYNE",
        "categoryId": "0",
        "rangeId": "1",
        "range": { "rangeId": "1", "label": "RANGE T3" },
        "locationTypeId": "0",
        "propriety": "C"
      },
      {
        "label": "Multi Protection Médium",
        "ean": "3 094 905 001 122",
        "clientCode": "",
        "family": "BROSSES A DENTS SENSODYNE",
        "brand": "SENSODYNE",
        "categoryId": "0",
        "rangeId": "1",
        "range": { "rangeId": "1", "label": "RANGE T3" },
        "locationTypeId": "0",
        "propriety": "C"
      },
      {
        "label": "Répare et Protège Extra Souple",
        "ean": "5 054 563 022 240",
        "clientCode": "",
        "family": "BROSSES A DENTS SENSODYNE",
        "brand": "SENSODYNE",
        "categoryId": "0",
        "rangeId": "1",
        "range": { "rangeId": "1", "label": "RANGE T3" },
        "locationTypeId": "0",
        "propriety": "C"
      },
      {
        "label": "Répare et Protège Souple",
        "ean": "5 054 563 022 295",
        "clientCode": "",
        "family": "BROSSES A DENTS SENSODYNE",
        "brand": "SENSODYNE",
        "categoryId": "0",
        "rangeId": "1",
        "range": { "rangeId": "1", "label": "RANGE T3" },
        "locationTypeId": "0",
        "propriety": "O"
      },
      {
        "label": "Soin Interdentaires Souple",
        "ean": "5 054 563 022 196",
        "clientCode": "",
        "family": "BROSSES A DENTS SENSODYNE",
        "brand": "SENSODYNE",
        "categoryId": "0",
        "rangeId": "1",
        "range": { "rangeId": "1", "label": "RANGE T3" },
        "locationTypeId": "0",
        "propriety": "C"
      },
      {
        "label": "Rapide Action Souple",
        "ean": "5 054 563 039 620",
        "clientCode": "",
        "family": "BROSSES A DENTS SENSODYNE",
        "brand": "SENSODYNE",
        "categoryId": "0",
        "rangeId": "1",
        "range": { "rangeId": "1", "label": "RANGE T3" },
        "locationTypeId": "0",
        "propriety": "O"
      },
      {
        "label": "Rapide Action Medium",
        "ean": "5 054 563 039 651",
        "clientCode": "",
        "family": "BROSSES A DENTS SENSODYNE",
        "brand": "SENSODYNE",
        "categoryId": "0",
        "rangeId": "1",
        "range": { "rangeId": "1", "label": "RANGE T3" },
        "locationTypeId": "0",
        "propriety": "O"
      },
      {
        "label": "Sensodyne Bain de bouche Menthe Fraîche 500 ML",
        "ean": "3 094 905 001 306",
        "clientCode": "",
        "family": "BAIN DE BOUCHE & ACCESSOIRES SENSODYNE",
        "brand": "SENSODYNE",
        "categoryId": "0",
        "rangeId": "1",
        "range": { "rangeId": "1", "label": "RANGE T3" },
        "locationTypeId": "0",
        "propriety": "C"
      },
      {
        "label": "Nettoyant Anti bacterien X 108 cps",
        "ean": "3 094 900 666 210",
        "clientCode": "",
        "family": "NETTOYANTS",
        "brand": "polident",
        "categoryId": "0",
        "rangeId": "1",
        "range": { "rangeId": "1", "label": "RANGE T3" },
        "locationTypeId": "0",
        "propriety": "C"
      },
      {
        "label": "Nettoyant Anti Bactérien X36 comprimés",
        "ean": "3 094 905 000 743",
        "clientCode": "",
        "family": "NETTOYANTS",
        "brand": "polident",
        "categoryId": "0",
        "rangeId": "1",
        "range": { "rangeId": "1", "label": "RANGE T3" },
        "locationTypeId": "0",
        "propriety": "O"
      },
      {
        "label": "Nettoyant Fraîcheur Intense X36 comprimés",
        "ean": "3 094 905 000 750",
        "clientCode": "",
        "family": "NETTOYANTS",
        "brand": "polident",
        "categoryId": "0",
        "rangeId": "1",
        "range": { "rangeId": "1", "label": "RANGE T3" },
        "locationTypeId": "0",
        "propriety": "C"
      },
      {
        "label": "Nettoyant Pureté Intégrale X36 comprimés",
        "ean": "3 094 905 000 736",
        "clientCode": "",
        "family": "NETTOYANTS",
        "brand": "polident",
        "categoryId": "0",
        "rangeId": "1",
        "range": { "rangeId": "1", "label": "RANGE T3" },
        "locationTypeId": "0",
        "propriety": "C"
      },
      {
        "label": "Nettoyant 3 minutes X36 comprimés",
        "ean": "3 094 905 001 009",
        "clientCode": "",
        "family": "NETTOYANTS",
        "brand": "polident",
        "categoryId": "0",
        "rangeId": "1",
        "range": { "rangeId": "1", "label": "RANGE T3" },
        "locationTypeId": "0",
        "propriety": "C"
      },
      {
        "label": "Nettoyant Total Action X36 comprimés",
        "ean": "5 054 563 022 929",
        "clientCode": "",
        "family": "NETTOYANTS",
        "brand": "polident",
        "categoryId": "0",
        "rangeId": "1",
        "range": { "rangeId": "1", "label": "RANGE T3" },
        "locationTypeId": "0",
        "propriety": "C"
      },
      {
        "label": "Crème adhésive Originale tube 40g",
        "ean": "3 094 905 000 804",
        "clientCode": "",
        "family": "FIXATIFS",
        "brand": "polident",
        "categoryId": "0",
        "rangeId": "1",
        "range": { "rangeId": "1", "label": "RANGE T3" },
        "locationTypeId": "0",
        "propriety": "O"
      },
      {
        "label": "Crème adhésive Original 70g",
        "ean": "3 094 905 000 309",
        "clientCode": "",
        "family": "FIXATIFS",
        "brand": "polident",
        "categoryId": "0",
        "rangeId": "1",
        "range": { "rangeId": "1", "label": "RANGE T3" },
        "locationTypeId": "0",
        "propriety": "C"
      },
      {
        "label": "Crème adhésive Soin et Tolérance 40g",
        "ean": "3 094 905 000 811",
        "clientCode": "",
        "family": "FIXATIFS",
        "brand": "polident",
        "categoryId": "0",
        "rangeId": "1",
        "range": { "rangeId": "1", "label": "RANGE T3" },
        "locationTypeId": "0",
        "propriety": "O"
      },
      {
        "label": "Crème adhésive Soin et Tolérance 70g",
        "ean": "3 094 905 000 729",
        "clientCode": "",
        "family": "FIXATIFS",
        "brand": "polident",
        "categoryId": "0",
        "rangeId": "1",
        "range": { "rangeId": "1", "label": "RANGE T3" },
        "locationTypeId": "0",
        "propriety": "O"
      },
      {
        "label": "Crème adhésive Total Action 40g",
        "ean": "5 054 563 003 386",
        "clientCode": "",
        "family": "FIXATIFS",
        "brand": "polident",
        "categoryId": "0",
        "rangeId": "1",
        "range": { "rangeId": "1", "label": "RANGE T3" },
        "locationTypeId": "0",
        "propriety": "C"
      },
      {
        "label": "Crème adhésive Total Action 70g",
        "ean": "5 054 563 019 523",
        "clientCode": "",
        "family": "FIXATIFS",
        "brand": "polident",
        "categoryId": "0",
        "rangeId": "1",
        "range": { "rangeId": "1", "label": "RANGE T3" },
        "locationTypeId": "0",
        "propriety": "C"
      },
      {
        "label": "Crème adhésive  Maximum Contrôle",
        "ean": "5 054 563 033 642",
        "clientCode": "",
        "family": "FIXATIFS",
        "brand": "polident",
        "categoryId": "0",
        "rangeId": "1",
        "range": { "rangeId": "1", "label": "RANGE T3" },
        "locationTypeId": "0",
        "propriety": "C"
      },
      {
        "label": "Triple Protection Menthe douce",
        "ean": "3 094 900 059 593",
        "clientCode": "",
        "family": "DENTIFRICES AQUAFRESH TUBES 75 ml",
        "brand": "AQUAFRESH",
        "categoryId": "0",
        "rangeId": "2",
        "range": { "rangeId": "2", "label": "RANGE T4" },
        "locationTypeId": "0",
        "propriety": "O"
      },
      {
        "label": "Triple Protection Blancheur ",
        "ean": "3 094 900 059 715",
        "clientCode": "",
        "family": "DENTIFRICES AQUAFRESH TUBES 75 ml",
        "brand": "AQUAFRESH",
        "categoryId": "0",
        "rangeId": "2",
        "range": { "rangeId": "2", "label": "RANGE T4" },
        "locationTypeId": "0",
        "propriety": "C"
      },
      {
        "label": "Blancheur &  Brillance    ",
        "ean": "3 094 900 059 692",
        "clientCode": "",
        "family": "DENTIFRICES AQUAFRESH TUBES 75 ml",
        "brand": "AQUAFRESH",
        "categoryId": "0",
        "rangeId": "2",
        "range": { "rangeId": "2", "label": "RANGE T4" },
        "locationTypeId": "0",
        "propriety": "O"
      },
      {
        "label": "Triple Protection menthe Fraîche SAP",
        "ean": "8 016 825 926 687",
        "clientCode": "",
        "family": "DENTIFRICES AQUAFRESH TUBES 75 ml",
        "brand": "AQUAFRESH",
        "categoryId": "0",
        "rangeId": "2",
        "range": { "rangeId": "2", "label": "RANGE T4" },
        "locationTypeId": "0",
        "propriety": "C"
      },
      {
        "label": "Intense Clean Fraîcheur",
        "ean": "5 054 563 007 315",
        "clientCode": "",
        "family": "DENTIFRICES AQUAFRESH TUBES 75 ml",
        "brand": "AQUAFRESH",
        "categoryId": "0",
        "rangeId": "2",
        "range": { "rangeId": "2", "label": "RANGE T4" },
        "locationTypeId": "0",
        "propriety": "O"
      },
      {
        "label": "Triple Protection Blancheur doseur 100ml",
        "ean": "3 094 900 059 722",
        "clientCode": "",
        "family": "DENTIFRICES AQUAFRESH DOSEURS 100ml",
        "brand": "AQUAFRESH",
        "categoryId": "0",
        "rangeId": "2",
        "range": { "rangeId": "2", "label": "RANGE T4" },
        "locationTypeId": "0",
        "propriety": "O"
      },
      {
        "label": "Pack Familial medium",
        "ean": "3 094 905 502 094",
        "clientCode": "",
        "family": "BROSSES A DENTS AQUAFRESH ",
        "brand": "AQUAFRESH",
        "categoryId": "0",
        "rangeId": "2",
        "range": { "rangeId": "2", "label": "RANGE T4" },
        "locationTypeId": "0",
        "propriety": "C"
      },
      {
        "label": "Flex souple",
        "ean": "3 094 900 059 104",
        "clientCode": "",
        "family": "BROSSES A DENTS AQUAFRESH ",
        "brand": "AQUAFRESH",
        "categoryId": "0",
        "rangeId": "2",
        "range": { "rangeId": "2", "label": "RANGE T4" },
        "locationTypeId": "0",
        "propriety": "O"
      },
      {
        "label": "Flex medium",
        "ean": "3 094 900 059 111",
        "clientCode": "",
        "family": "BROSSES A DENTS AQUAFRESH ",
        "brand": "AQUAFRESH",
        "categoryId": "0",
        "rangeId": "2",
        "range": { "rangeId": "2", "label": "RANGE T4" },
        "locationTypeId": "0",
        "propriety": "C"
      },
      {
        "label": "Inter Espaces Souple",
        "ean": "3 094 900 059 432",
        "clientCode": "",
        "family": "BROSSES A DENTS AQUAFRESH ",
        "brand": "AQUAFRESH",
        "categoryId": "0",
        "rangeId": "2",
        "range": { "rangeId": "2", "label": "RANGE T4" },
        "locationTypeId": "0",
        "propriety": "O"
      },
      {
        "label": "Inter Espaces Medium",
        "ean": "3 094 900 059 449",
        "clientCode": "",
        "family": "BROSSES A DENTS AQUAFRESH ",
        "brand": "AQUAFRESH",
        "categoryId": "0",
        "rangeId": "2",
        "range": { "rangeId": "2", "label": "RANGE T4" },
        "locationTypeId": "0",
        "propriety": "O"
      },
      {
        "label": "HD White souple",
        "ean": "3 094 905 001 092",
        "clientCode": "",
        "family": "BROSSES A DENTS AQUAFRESH ",
        "brand": "AQUAFRESH",
        "categoryId": "0",
        "rangeId": "2",
        "range": { "rangeId": "2", "label": "RANGE T4" },
        "locationTypeId": "0",
        "propriety": "C"
      },
      {
        "label": "Intense Clean Medium",
        "ean": "5 054 563 008 060",
        "clientCode": "",
        "family": "BROSSES A DENTS AQUAFRESH ",
        "brand": "AQUAFRESH",
        "categoryId": "0",
        "rangeId": "2",
        "range": { "rangeId": "2", "label": "RANGE T4" },
        "locationTypeId": "0",
        "propriety": "O"
      },
      {
        "label": "KIT Dents de Lait 2-5 ANS",
        "ean": "3 094 900 062 159",
        "clientCode": "",
        "family": "GAMME ENFANT",
        "brand": "AQUAFRESH",
        "categoryId": "0",
        "rangeId": "2",
        "range": { "rangeId": "2", "label": "RANGE T4" },
        "locationTypeId": "0",
        "propriety": "O"
      },
      {
        "label": "Dentifrice Junior tube 75ml",
        "ean": "3 094 905 000 019",
        "clientCode": "",
        "family": "GAMME ENFANT",
        "brand": "AQUAFRESH",
        "categoryId": "0",
        "rangeId": "2",
        "range": { "rangeId": "2", "label": "RANGE T4" },
        "locationTypeId": "0",
        "propriety": "C"
      },
      {
        "label": "BAD Junior  ",
        "ean": "3 094 900 059 180",
        "clientCode": "",
        "family": "GAMME ENFANT",
        "brand": "AQUAFRESH",
        "categoryId": "0",
        "rangeId": "2",
        "range": { "rangeId": "2", "label": "RANGE T4" },
        "locationTypeId": "0",
        "propriety": "C"
      },
      {
        "label": "Pro-Email Protection Quotidienne ",
        "ean": "3 094 905 001 047",
        "clientCode": "",
        "family": "DENTIFRICES TUBES SENSODYNE",
        "brand": "SENSODYNE",
        "categoryId": "0",
        "rangeId": "2",
        "range": { "rangeId": "2", "label": "RANGE T4" },
        "locationTypeId": "0",
        "propriety": "C"
      },
      {
        "label": "Anti-caries ",
        "ean": "3 389 181 130 759",
        "clientCode": "",
        "family": "DENTIFRICES TUBES SENSODYNE",
        "brand": "SENSODYNE",
        "categoryId": "0",
        "rangeId": "2",
        "range": { "rangeId": "2", "label": "RANGE T4" },
        "locationTypeId": "0",
        "propriety": "C"
      },
      {
        "label": "Cure Sensibilité",
        "ean": "3 094 901 360 001",
        "clientCode": "",
        "family": "DENTIFRICES TUBES SENSODYNE",
        "brand": "SENSODYNE",
        "categoryId": "0",
        "rangeId": "2",
        "range": { "rangeId": "2", "label": "RANGE T4" },
        "locationTypeId": "0",
        "propriety": "C"
      },
      {
        "label": "Soin Gencives 24H",
        "ean": "5 054 563 026 439",
        "clientCode": "",
        "family": "DENTIFRICES TUBES SENSODYNE",
        "brand": "SENSODYNE",
        "categoryId": "0",
        "rangeId": "2",
        "range": { "rangeId": "2", "label": "RANGE T4" },
        "locationTypeId": "0",
        "propriety": "O"
      },
      {
        "label": "Soin Complet 24H",
        "ean": "5 054 563 026 477",
        "clientCode": "",
        "family": "DENTIFRICES TUBES SENSODYNE",
        "brand": "SENSODYNE",
        "categoryId": "0",
        "rangeId": "2",
        "range": { "rangeId": "2", "label": "RANGE T4" },
        "locationTypeId": "0",
        "propriety": "C"
      },
      {
        "label": "Soin Blancheur 24H",
        "ean": "5 054 563 026 392",
        "clientCode": "",
        "family": "DENTIFRICES TUBES SENSODYNE",
        "brand": "SENSODYNE",
        "categoryId": "0",
        "rangeId": "2",
        "range": { "rangeId": "2", "label": "RANGE T4" },
        "locationTypeId": "0",
        "propriety": "O"
      },
      {
        "label": "Soin Extra Fresh 24H",
        "ean": "5 054 563 002 358",
        "clientCode": "",
        "family": "DENTIFRICES TUBES SENSODYNE",
        "brand": "SENSODYNE",
        "categoryId": "0",
        "rangeId": "2",
        "range": { "rangeId": "2", "label": "RANGE T4" },
        "locationTypeId": "0",
        "propriety": "O"
      },
      {
        "label": "Soin Nettoyage 24H",
        "ean": "5 054 563 015 440",
        "clientCode": "",
        "family": "DENTIFRICES TUBES SENSODYNE",
        "brand": "SENSODYNE",
        "categoryId": "0",
        "rangeId": "2",
        "range": { "rangeId": "2", "label": "RANGE T4" },
        "locationTypeId": "0",
        "propriety": "C"
      },
      {
        "label": "Répare & protège ",
        "ean": "3 094 905 000 033",
        "clientCode": "",
        "family": "DENTIFRICES TUBES SENSODYNE",
        "brand": "SENSODYNE",
        "categoryId": "0",
        "rangeId": "2",
        "range": { "rangeId": "2", "label": "RANGE T4" },
        "locationTypeId": "0",
        "propriety": "O"
      },
      {
        "label": "Répare & protège blancheur",
        "ean": "3 094 905 000 316",
        "clientCode": "",
        "family": "DENTIFRICES TUBES SENSODYNE",
        "brand": "SENSODYNE",
        "categoryId": "0",
        "rangeId": "2",
        "range": { "rangeId": "2", "label": "RANGE T4" },
        "locationTypeId": "0",
        "propriety": "C"
      },
      {
        "label": "Multi Protection",
        "ean": "3 094 905 000 859",
        "clientCode": "",
        "family": "DENTIFRICES TUBES SENSODYNE",
        "brand": "SENSODYNE",
        "categoryId": "0",
        "rangeId": "2",
        "range": { "rangeId": "2", "label": "RANGE T4" },
        "locationTypeId": "0",
        "propriety": "O"
      },
      {
        "label": "Rapide Action Extra Fresh",
        "ean": "5 054 563 010 278",
        "clientCode": "",
        "family": "DENTIFRICES TUBES SENSODYNE",
        "brand": "SENSODYNE",
        "categoryId": "0",
        "rangeId": "2",
        "range": { "rangeId": "2", "label": "RANGE T4" },
        "locationTypeId": "0",
        "propriety": "O"
      },
      {
        "label": "Rapide Action Blancheur",
        "ean": "5 054 563 024 558",
        "clientCode": "",
        "family": "DENTIFRICES TUBES SENSODYNE",
        "brand": "SENSODYNE",
        "categoryId": "0",
        "rangeId": "2",
        "range": { "rangeId": "2", "label": "RANGE T4" },
        "locationTypeId": "0",
        "propriety": "C"
      },
      {
        "label": "Multi Protection Blancheur",
        "ean": "5 054 563 038 821",
        "clientCode": "",
        "family": "DENTIFRICES TUBES SENSODYNE",
        "brand": "SENSODYNE",
        "categoryId": "0",
        "rangeId": "2",
        "range": { "rangeId": "2", "label": "RANGE T4" },
        "locationTypeId": "0",
        "propriety": "O"
      },
      {
        "label": "Soin Fluor Actif",
        "ean": "5 054 563 034 922",
        "clientCode": "",
        "family": "DENTIFRICES TUBES SENSODYNE",
        "brand": "SENSODYNE",
        "categoryId": "0",
        "rangeId": "2",
        "range": { "rangeId": "2", "label": "RANGE T4" },
        "locationTypeId": "0",
        "propriety": "C"
      },
      {
        "label": "Soin Contrôle Plaque",
        "ean": "5 054 563 041 319",
        "clientCode": "",
        "family": "DENTIFRICES TUBES SENSODYNE",
        "brand": "SENSODYNE",
        "categoryId": "0",
        "rangeId": "2",
        "range": { "rangeId": "2", "label": "RANGE T4" },
        "locationTypeId": "0",
        "propriety": "O"
      },
      {
        "label": "Doseur Soin Blancheur 100ml",
        "ean": "5 054 563 049 414",
        "clientCode": "",
        "family": "DENTIFRICES TUBES SENSODYNE",
        "brand": "SENSODYNE",
        "categoryId": "0",
        "rangeId": "2",
        "range": { "rangeId": "2", "label": "RANGE T4" },
        "locationTypeId": "0",
        "propriety": "C"
      },
      {
        "label": "Soin & Précision Extra Souple",
        "ean": "3 094 901 304 302",
        "clientCode": "",
        "family": "BROSSES A DENTS SENSODYNE",
        "brand": "SENSODYNE",
        "categoryId": "0",
        "rangeId": "2",
        "range": { "rangeId": "2", "label": "RANGE T4" },
        "locationTypeId": "0",
        "propriety": "C"
      },
      {
        "label": "Soin &Précision Souple",
        "ean": "3 094 901 304 319",
        "clientCode": "",
        "family": "BROSSES A DENTS SENSODYNE",
        "brand": "SENSODYNE",
        "categoryId": "0",
        "rangeId": "2",
        "range": { "rangeId": "2", "label": "RANGE T4" },
        "locationTypeId": "0",
        "propriety": "O"
      },
      {
        "label": "Soin & Précision Medium",
        "ean": "3 094 901 330 004",
        "clientCode": "",
        "family": "BROSSES A DENTS SENSODYNE",
        "brand": "SENSODYNE",
        "categoryId": "0",
        "rangeId": "2",
        "range": { "rangeId": "2", "label": "RANGE T4" },
        "locationTypeId": "0",
        "propriety": "C"
      },
      {
        "label": "Soin Gencives Extra Souple",
        "ean": "3 094 901 410 003",
        "clientCode": "",
        "family": "BROSSES A DENTS SENSODYNE",
        "brand": "SENSODYNE",
        "categoryId": "0",
        "rangeId": "2",
        "range": { "rangeId": "2", "label": "RANGE T4" },
        "locationTypeId": "0",
        "propriety": "O"
      },
      {
        "label": "Soin Gencives Souple",
        "ean": "3 094 901 390 008",
        "clientCode": "",
        "family": "BROSSES A DENTS SENSODYNE",
        "brand": "SENSODYNE",
        "categoryId": "0",
        "rangeId": "2",
        "range": { "rangeId": "2", "label": "RANGE T4" },
        "locationTypeId": "0",
        "propriety": "O"
      },
      {
        "label": "Multi Protection Souple",
        "ean": "3 094 905 001 115",
        "clientCode": "",
        "family": "BROSSES A DENTS SENSODYNE",
        "brand": "SENSODYNE",
        "categoryId": "0",
        "rangeId": "2",
        "range": { "rangeId": "2", "label": "RANGE T4" },
        "locationTypeId": "0",
        "propriety": "C"
      },
      {
        "label": "Multi Protection Médium",
        "ean": "3 094 905 001 122",
        "clientCode": "",
        "family": "BROSSES A DENTS SENSODYNE",
        "brand": "SENSODYNE",
        "categoryId": "0",
        "rangeId": "2",
        "range": { "rangeId": "2", "label": "RANGE T4" },
        "locationTypeId": "0",
        "propriety": "C"
      },
      {
        "label": "Répare et Protège Extra Souple",
        "ean": "5 054 563 022 240",
        "clientCode": "",
        "family": "BROSSES A DENTS SENSODYNE",
        "brand": "SENSODYNE",
        "categoryId": "0",
        "rangeId": "2",
        "range": { "rangeId": "2", "label": "RANGE T4" },
        "locationTypeId": "0",
        "propriety": "C"
      },
      {
        "label": "Répare et Protège Souple",
        "ean": "5 054 563 022 295",
        "clientCode": "",
        "family": "BROSSES A DENTS SENSODYNE",
        "brand": "SENSODYNE",
        "categoryId": "0",
        "rangeId": "2",
        "range": { "rangeId": "2", "label": "RANGE T4" },
        "locationTypeId": "0",
        "propriety": "O"
      },
      {
        "label": "Soin Interdentaires Souple",
        "ean": "5 054 563 022 196",
        "clientCode": "",
        "family": "BROSSES A DENTS SENSODYNE",
        "brand": "SENSODYNE",
        "categoryId": "0",
        "rangeId": "2",
        "range": { "rangeId": "2", "label": "RANGE T4" },
        "locationTypeId": "0",
        "propriety": "C"
      },
      {
        "label": "Rapide Action Souple",
        "ean": "5 054 563 039 620",
        "clientCode": "",
        "family": "BROSSES A DENTS SENSODYNE",
        "brand": "SENSODYNE",
        "categoryId": "0",
        "rangeId": "2",
        "range": { "rangeId": "2", "label": "RANGE T4" },
        "locationTypeId": "0",
        "propriety": "O"
      },
      {
        "label": "Rapide Action Medium",
        "ean": "5 054 563 039 651",
        "clientCode": "",
        "family": "BROSSES A DENTS SENSODYNE",
        "brand": "SENSODYNE",
        "categoryId": "0",
        "rangeId": "2",
        "range": { "rangeId": "2", "label": "RANGE T4" },
        "locationTypeId": "0",
        "propriety": "O"
      },
      {
        "label": "Sensodyne Bain de bouche Menthe Fraîche 500 ML",
        "ean": "3 094 905 001 306",
        "clientCode": "",
        "family": "BAIN DE BOUCHE & ACCESSOIRES SENSODYNE",
        "brand": "SENSODYNE",
        "categoryId": "0",
        "rangeId": "2",
        "range": { "rangeId": "2", "label": "RANGE T4" },
        "locationTypeId": "0",
        "propriety": "O"
      },
      {
        "label": "Nettoyant Anti bacterien X 108 cps",
        "ean": "3 094 900 666 210",
        "clientCode": "",
        "family": "NETTOYANTS",
        "brand": "polident",
        "categoryId": "0",
        "rangeId": "2",
        "range": { "rangeId": "2", "label": "RANGE T4" },
        "locationTypeId": "0",
        "propriety": "C"
      },
      {
        "label": "Nettoyant Anti Bactérien X36 comprimés",
        "ean": "3 094 905 000 743",
        "clientCode": "",
        "family": "NETTOYANTS",
        "brand": "polident",
        "categoryId": "0",
        "rangeId": "2",
        "range": { "rangeId": "2", "label": "RANGE T4" },
        "locationTypeId": "0",
        "propriety": "O"
      },
      {
        "label": "Nettoyant Fraîcheur Intense X36 comprimés",
        "ean": "3 094 905 000 750",
        "clientCode": "",
        "family": "NETTOYANTS",
        "brand": "polident",
        "categoryId": "0",
        "rangeId": "2",
        "range": { "rangeId": "2", "label": "RANGE T4" },
        "locationTypeId": "0",
        "propriety": "C"
      },
      {
        "label": "Nettoyant Pureté Intégrale X36 comprimés",
        "ean": "3 094 905 000 736",
        "clientCode": "",
        "family": "NETTOYANTS",
        "brand": "polident",
        "categoryId": "0",
        "rangeId": "2",
        "range": { "rangeId": "2", "label": "RANGE T4" },
        "locationTypeId": "0",
        "propriety": "C"
      },
      {
        "label": "Nettoyant 3 minutes X36 comprimés",
        "ean": "3 094 905 001 009",
        "clientCode": "",
        "family": "NETTOYANTS",
        "brand": "polident",
        "categoryId": "0",
        "rangeId": "2",
        "range": { "rangeId": "2", "label": "RANGE T4" },
        "locationTypeId": "0",
        "propriety": "C"
      },
      {
        "label": "Nettoyant Total Action X36 comprimés",
        "ean": "5 054 563 022 929",
        "clientCode": "",
        "family": "NETTOYANTS",
        "brand": "polident",
        "categoryId": "0",
        "rangeId": "2",
        "range": { "rangeId": "2", "label": "RANGE T4" },
        "locationTypeId": "0",
        "propriety": "O"
      },
      {
        "label": "Crème adhésive Originale tube 40g",
        "ean": "3 094 905 000 804",
        "clientCode": "",
        "family": "FIXATIFS",
        "brand": "polident",
        "categoryId": "0",
        "rangeId": "2",
        "range": { "rangeId": "2", "label": "RANGE T4" },
        "locationTypeId": "0",
        "propriety": "O"
      },
      {
        "label": "Crème adhésive Original 70g",
        "ean": "3 094 905 000 309",
        "clientCode": "",
        "family": "FIXATIFS",
        "brand": "polident",
        "categoryId": "0",
        "rangeId": "2",
        "range": { "rangeId": "2", "label": "RANGE T4" },
        "locationTypeId": "0",
        "propriety": "C"
      },
      {
        "label": "Crème adhésive Soin et Tolérance 40g",
        "ean": "3 094 905 000 811",
        "clientCode": "",
        "family": "FIXATIFS",
        "brand": "polident",
        "categoryId": "0",
        "rangeId": "2",
        "range": { "rangeId": "2", "label": "RANGE T4" },
        "locationTypeId": "0",
        "propriety": "O"
      },
      {
        "label": "Crème adhésive Soin et Tolérance 70g",
        "ean": "3 094 905 000 729",
        "clientCode": "",
        "family": "FIXATIFS",
        "brand": "polident",
        "categoryId": "0",
        "rangeId": "2",
        "range": { "rangeId": "2", "label": "RANGE T4" },
        "locationTypeId": "0",
        "propriety": "O"
      },
      {
        "label": "Crème adhésive Total Action 40g",
        "ean": "5 054 563 003 386",
        "clientCode": "",
        "family": "FIXATIFS",
        "brand": "polident",
        "categoryId": "0",
        "rangeId": "2",
        "range": { "rangeId": "2", "label": "RANGE T4" },
        "locationTypeId": "0",
        "propriety": "C"
      },
      {
        "label": "Crème adhésive Total Action 70g",
        "ean": "5 054 563 019 523",
        "clientCode": "",
        "family": "FIXATIFS",
        "brand": "polident",
        "categoryId": "0",
        "rangeId": "2",
        "range": { "rangeId": "2", "label": "RANGE T4" },
        "locationTypeId": "0",
        "propriety": "O"
      },
      {
        "label": "Crème adhésive  Maximum Contrôle",
        "ean": "5 054 563 033 642",
        "clientCode": "",
        "family": "FIXATIFS",
        "brand": "polident",
        "categoryId": "0",
        "rangeId": "2",
        "range": { "rangeId": "2", "label": "RANGE T4" },
        "locationTypeId": "0",
        "propriety": "C"
      },
      {
        "label": "Triple Protection Menthe douce",
        "ean": "3 094 900 059 593",
        "clientCode": "",
        "family": "DENTIFRICES AQUAFRESH TUBES 75 ml",
        "brand": "AQUAFRESH",
        "categoryId": "0",
        "rangeId": "3",
        "range": { "rangeId": "3", "label": "RANGE T5" },
        "locationTypeId": "0"
      },
      {
        "label": "Triple Protection Blancheur ",
        "ean": "3 094 900 059 715",
        "clientCode": "",
        "family": "DENTIFRICES AQUAFRESH TUBES 75 ml",
        "brand": "AQUAFRESH",
        "categoryId": "0",
        "rangeId": "3",
        "range": { "rangeId": "3", "label": "RANGE T5" },
        "locationTypeId": "0"
      },
      {
        "label": "Blancheur &  Brillance    ",
        "ean": "3 094 900 059 692",
        "clientCode": "",
        "family": "DENTIFRICES AQUAFRESH TUBES 75 ml",
        "brand": "AQUAFRESH",
        "categoryId": "0",
        "rangeId": "3",
        "range": { "rangeId": "3", "label": "RANGE T5" },
        "locationTypeId": "0"
      },
      {
        "label": "Triple Protection menthe Fraîche SAP",
        "ean": "8 016 825 926 687",
        "clientCode": "",
        "family": "DENTIFRICES AQUAFRESH TUBES 75 ml",
        "brand": "AQUAFRESH",
        "categoryId": "0",
        "rangeId": "3",
        "range": { "rangeId": "3", "label": "RANGE T5" },
        "locationTypeId": "0"
      },
      {
        "label": "Intense Clean Fraîcheur",
        "ean": "5 054 563 007 315",
        "clientCode": "",
        "family": "DENTIFRICES AQUAFRESH TUBES 75 ml",
        "brand": "AQUAFRESH",
        "categoryId": "0",
        "rangeId": "3",
        "range": { "rangeId": "3", "label": "RANGE T5" },
        "locationTypeId": "0"
      },
      {
        "label": "Triple Protection Blancheur doseur 100ml",
        "ean": "3 094 900 059 722",
        "clientCode": "",
        "family": "DENTIFRICES AQUAFRESH DOSEURS 100ml",
        "brand": "AQUAFRESH",
        "categoryId": "0",
        "rangeId": "3",
        "range": { "rangeId": "3", "label": "RANGE T5" },
        "locationTypeId": "0"
      },
      {
        "label": "Pack Familial medium",
        "ean": "3 094 905 502 094",
        "clientCode": "",
        "family": "BROSSES A DENTS AQUAFRESH ",
        "brand": "AQUAFRESH",
        "categoryId": "0",
        "rangeId": "3",
        "range": { "rangeId": "3", "label": "RANGE T5" },
        "locationTypeId": "0"
      },
      {
        "label": "Flex souple",
        "ean": "3 094 900 059 104",
        "clientCode": "",
        "family": "BROSSES A DENTS AQUAFRESH ",
        "brand": "AQUAFRESH",
        "categoryId": "0",
        "rangeId": "3",
        "range": { "rangeId": "3", "label": "RANGE T5" },
        "locationTypeId": "0"
      },
      {
        "label": "Flex medium",
        "ean": "3 094 900 059 111",
        "clientCode": "",
        "family": "BROSSES A DENTS AQUAFRESH ",
        "brand": "AQUAFRESH",
        "categoryId": "0",
        "rangeId": "3",
        "range": { "rangeId": "3", "label": "RANGE T5" },
        "locationTypeId": "0"
      },
      {
        "label": "Inter Espaces Souple",
        "ean": "3 094 900 059 432",
        "clientCode": "",
        "family": "BROSSES A DENTS AQUAFRESH ",
        "brand": "AQUAFRESH",
        "categoryId": "0",
        "rangeId": "3",
        "range": { "rangeId": "3", "label": "RANGE T5" },
        "locationTypeId": "0"
      },
      {
        "label": "Inter Espaces Medium",
        "ean": "3 094 900 059 449",
        "clientCode": "",
        "family": "BROSSES A DENTS AQUAFRESH ",
        "brand": "AQUAFRESH",
        "categoryId": "0",
        "rangeId": "3",
        "range": { "rangeId": "3", "label": "RANGE T5" },
        "locationTypeId": "0"
      },
      {
        "label": "HD White souple",
        "ean": "3 094 905 001 092",
        "clientCode": "",
        "family": "BROSSES A DENTS AQUAFRESH ",
        "brand": "AQUAFRESH",
        "categoryId": "0",
        "rangeId": "3",
        "range": { "rangeId": "3", "label": "RANGE T5" },
        "locationTypeId": "0"
      },
      {
        "label": "Intense Clean Medium",
        "ean": "5 054 563 008 060",
        "clientCode": "",
        "family": "BROSSES A DENTS AQUAFRESH ",
        "brand": "AQUAFRESH",
        "categoryId": "0",
        "rangeId": "3",
        "range": { "rangeId": "3", "label": "RANGE T5" },
        "locationTypeId": "0"
      },
      {
        "label": "KIT Dents de Lait 2-5 ANS",
        "ean": "3 094 900 062 159",
        "clientCode": "",
        "family": "GAMME ENFANT",
        "brand": "AQUAFRESH",
        "categoryId": "0",
        "rangeId": "3",
        "range": { "rangeId": "3", "label": "RANGE T5" },
        "locationTypeId": "0"
      },
      {
        "label": "Dentifrice Junior tube 75ml",
        "ean": "3 094 905 000 019",
        "clientCode": "",
        "family": "GAMME ENFANT",
        "brand": "AQUAFRESH",
        "categoryId": "0",
        "rangeId": "3",
        "range": { "rangeId": "3", "label": "RANGE T5" },
        "locationTypeId": "0"
      },
      {
        "label": "BAD Junior  ",
        "ean": "3 094 900 059 180",
        "clientCode": "",
        "family": "GAMME ENFANT",
        "brand": "AQUAFRESH",
        "categoryId": "0",
        "rangeId": "3",
        "range": { "rangeId": "3", "label": "RANGE T5" },
        "locationTypeId": "0"
      },
      {
        "label": "Pro-Email Protection Quotidienne ",
        "ean": "3 094 905 001 047",
        "clientCode": "",
        "family": "DENTIFRICES TUBES SENSODYNE",
        "brand": "SENSODYNE",
        "categoryId": "0",
        "rangeId": "3",
        "range": { "rangeId": "3", "label": "RANGE T5" },
        "locationTypeId": "0"
      },
      {
        "label": "Anti-caries ",
        "ean": "3 389 181 130 759",
        "clientCode": "",
        "family": "DENTIFRICES TUBES SENSODYNE",
        "brand": "SENSODYNE",
        "categoryId": "0",
        "rangeId": "3",
        "range": { "rangeId": "3", "label": "RANGE T5" },
        "locationTypeId": "0"
      },
      {
        "label": "Cure Sensibilité",
        "ean": "3 094 901 360 001",
        "clientCode": "",
        "family": "DENTIFRICES TUBES SENSODYNE",
        "brand": "SENSODYNE",
        "categoryId": "0",
        "rangeId": "3",
        "range": { "rangeId": "3", "label": "RANGE T5" },
        "locationTypeId": "0"
      },
      {
        "label": "Soin Gencives 24H",
        "ean": "5 054 563 026 439",
        "clientCode": "",
        "family": "DENTIFRICES TUBES SENSODYNE",
        "brand": "SENSODYNE",
        "categoryId": "0",
        "rangeId": "3",
        "range": { "rangeId": "3", "label": "RANGE T5" },
        "locationTypeId": "0"
      },
      {
        "label": "Soin Complet 24H",
        "ean": "5 054 563 026 477",
        "clientCode": "",
        "family": "DENTIFRICES TUBES SENSODYNE",
        "brand": "SENSODYNE",
        "categoryId": "0",
        "rangeId": "3",
        "range": { "rangeId": "3", "label": "RANGE T5" },
        "locationTypeId": "0"
      },
      {
        "label": "Soin Blancheur 24H",
        "ean": "5 054 563 026 392",
        "clientCode": "",
        "family": "DENTIFRICES TUBES SENSODYNE",
        "brand": "SENSODYNE",
        "categoryId": "0",
        "rangeId": "3",
        "range": { "rangeId": "3", "label": "RANGE T5" },
        "locationTypeId": "0"
      },
      {
        "label": "Soin Extra Fresh 24H",
        "ean": "5 054 563 002 358",
        "clientCode": "",
        "family": "DENTIFRICES TUBES SENSODYNE",
        "brand": "SENSODYNE",
        "categoryId": "0",
        "rangeId": "3",
        "range": { "rangeId": "3", "label": "RANGE T5" },
        "locationTypeId": "0"
      },
      {
        "label": "Soin Nettoyage 24H",
        "ean": "5 054 563 015 440",
        "clientCode": "",
        "family": "DENTIFRICES TUBES SENSODYNE",
        "brand": "SENSODYNE",
        "categoryId": "0",
        "rangeId": "3",
        "range": { "rangeId": "3", "label": "RANGE T5" },
        "locationTypeId": "0"
      },
      {
        "label": "Répare & protège ",
        "ean": "3 094 905 000 033",
        "clientCode": "",
        "family": "DENTIFRICES TUBES SENSODYNE",
        "brand": "SENSODYNE",
        "categoryId": "0",
        "rangeId": "3",
        "range": { "rangeId": "3", "label": "RANGE T5" },
        "locationTypeId": "0"
      },
      {
        "label": "Répare & protège blancheur",
        "ean": "3 094 905 000 316",
        "clientCode": "",
        "family": "DENTIFRICES TUBES SENSODYNE",
        "brand": "SENSODYNE",
        "categoryId": "0",
        "rangeId": "3",
        "range": { "rangeId": "3", "label": "RANGE T5" },
        "locationTypeId": "0"
      },
      {
        "label": "Multi Protection",
        "ean": "3 094 905 000 859",
        "clientCode": "",
        "family": "DENTIFRICES TUBES SENSODYNE",
        "brand": "SENSODYNE",
        "categoryId": "0",
        "rangeId": "3",
        "range": { "rangeId": "3", "label": "RANGE T5" },
        "locationTypeId": "0"
      },
      {
        "label": "Rapide Action Extra Fresh",
        "ean": "5 054 563 010 278",
        "clientCode": "",
        "family": "DENTIFRICES TUBES SENSODYNE",
        "brand": "SENSODYNE",
        "categoryId": "0",
        "rangeId": "3",
        "range": { "rangeId": "3", "label": "RANGE T5" },
        "locationTypeId": "0"
      },
      {
        "label": "Rapide Action Blancheur",
        "ean": "5 054 563 024 558",
        "clientCode": "",
        "family": "DENTIFRICES TUBES SENSODYNE",
        "brand": "SENSODYNE",
        "categoryId": "0",
        "rangeId": "3",
        "range": { "rangeId": "3", "label": "RANGE T5" },
        "locationTypeId": "0"
      },
      {
        "label": "Multi Protection Blancheur",
        "ean": "5 054 563 038 821",
        "clientCode": "",
        "family": "DENTIFRICES TUBES SENSODYNE",
        "brand": "SENSODYNE",
        "categoryId": "0",
        "rangeId": "3",
        "range": { "rangeId": "3", "label": "RANGE T5" },
        "locationTypeId": "0"
      },
      {
        "label": "Soin Fluor Actif",
        "ean": "5 054 563 034 922",
        "clientCode": "",
        "family": "DENTIFRICES TUBES SENSODYNE",
        "brand": "SENSODYNE",
        "categoryId": "0",
        "rangeId": "3",
        "range": { "rangeId": "3", "label": "RANGE T5" },
        "locationTypeId": "0"
      },
      {
        "label": "Soin Contrôle Plaque",
        "ean": "5 054 563 041 319",
        "clientCode": "",
        "family": "DENTIFRICES TUBES SENSODYNE",
        "brand": "SENSODYNE",
        "categoryId": "0",
        "rangeId": "3",
        "range": { "rangeId": "3", "label": "RANGE T5" },
        "locationTypeId": "0"
      },
      {
        "label": "Doseur Soin Blancheur 100ml",
        "ean": "5 054 563 049 414",
        "clientCode": "",
        "family": "DENTIFRICES TUBES SENSODYNE",
        "brand": "SENSODYNE",
        "categoryId": "0",
        "rangeId": "3",
        "range": { "rangeId": "3", "label": "RANGE T5" },
        "locationTypeId": "0"
      },
      {
        "label": "Soin & Précision Extra Souple",
        "ean": "3 094 901 304 302",
        "clientCode": "",
        "family": "BROSSES A DENTS SENSODYNE",
        "brand": "SENSODYNE",
        "categoryId": "0",
        "rangeId": "3",
        "range": { "rangeId": "3", "label": "RANGE T5" },
        "locationTypeId": "0"
      },
      {
        "label": "Soin &Précision Souple",
        "ean": "3 094 901 304 319",
        "clientCode": "",
        "family": "BROSSES A DENTS SENSODYNE",
        "brand": "SENSODYNE",
        "categoryId": "0",
        "rangeId": "3",
        "range": { "rangeId": "3", "label": "RANGE T5" },
        "locationTypeId": "0"
      },
      {
        "label": "Soin & Précision Medium",
        "ean": "3 094 901 330 004",
        "clientCode": "",
        "family": "BROSSES A DENTS SENSODYNE",
        "brand": "SENSODYNE",
        "categoryId": "0",
        "rangeId": "3",
        "range": { "rangeId": "3", "label": "RANGE T5" },
        "locationTypeId": "0"
      },
      {
        "label": "Soin Gencives Extra Souple",
        "ean": "3 094 901 410 003",
        "clientCode": "",
        "family": "BROSSES A DENTS SENSODYNE",
        "brand": "SENSODYNE",
        "categoryId": "0",
        "rangeId": "3",
        "range": { "rangeId": "3", "label": "RANGE T5" },
        "locationTypeId": "0"
      },
      {
        "label": "Soin Gencives Souple",
        "ean": "3 094 901 390 008",
        "clientCode": "",
        "family": "BROSSES A DENTS SENSODYNE",
        "brand": "SENSODYNE",
        "categoryId": "0",
        "rangeId": "3",
        "range": { "rangeId": "3", "label": "RANGE T5" },
        "locationTypeId": "0"
      },
      {
        "label": "Multi Protection Souple",
        "ean": "3 094 905 001 115",
        "clientCode": "",
        "family": "BROSSES A DENTS SENSODYNE",
        "brand": "SENSODYNE",
        "categoryId": "0",
        "rangeId": "3",
        "range": { "rangeId": "3", "label": "RANGE T5" },
        "locationTypeId": "0"
      },
      {
        "label": "Multi Protection Médium",
        "ean": "3 094 905 001 122",
        "clientCode": "",
        "family": "BROSSES A DENTS SENSODYNE",
        "brand": "SENSODYNE",
        "categoryId": "0",
        "rangeId": "3",
        "range": { "rangeId": "3", "label": "RANGE T5" },
        "locationTypeId": "0"
      },
      {
        "label": "Répare et Protège Extra Souple",
        "ean": "5 054 563 022 240",
        "clientCode": "",
        "family": "BROSSES A DENTS SENSODYNE",
        "brand": "SENSODYNE",
        "categoryId": "0",
        "rangeId": "3",
        "range": { "rangeId": "3", "label": "RANGE T5" },
        "locationTypeId": "0"
      },
      {
        "label": "Répare et Protège Souple",
        "ean": "5 054 563 022 295",
        "clientCode": "",
        "family": "BROSSES A DENTS SENSODYNE",
        "brand": "SENSODYNE",
        "categoryId": "0",
        "rangeId": "3",
        "range": { "rangeId": "3", "label": "RANGE T5" },
        "locationTypeId": "0"
      },
      {
        "label": "Soin Interdentaires Souple",
        "ean": "5 054 563 022 196",
        "clientCode": "",
        "family": "BROSSES A DENTS SENSODYNE",
        "brand": "SENSODYNE",
        "categoryId": "0",
        "rangeId": "3",
        "range": { "rangeId": "3", "label": "RANGE T5" },
        "locationTypeId": "0"
      },
      {
        "label": "Rapide Action Souple",
        "ean": "5 054 563 039 620",
        "clientCode": "",
        "family": "BROSSES A DENTS SENSODYNE",
        "brand": "SENSODYNE",
        "categoryId": "0",
        "rangeId": "3",
        "range": { "rangeId": "3", "label": "RANGE T5" },
        "locationTypeId": "0"
      },
      {
        "label": "Rapide Action Medium",
        "ean": "5 054 563 039 651",
        "clientCode": "",
        "family": "BROSSES A DENTS SENSODYNE",
        "brand": "SENSODYNE",
        "categoryId": "0",
        "rangeId": "3",
        "range": { "rangeId": "3", "label": "RANGE T5" },
        "locationTypeId": "0"
      },
      {
        "label": "Sensodyne Bain de bouche Menthe Fraîche 500 ML",
        "ean": "3 094 905 001 306",
        "clientCode": "",
        "family": "BAIN DE BOUCHE & ACCESSOIRES SENSODYNE",
        "brand": "SENSODYNE",
        "categoryId": "0",
        "rangeId": "3",
        "range": { "rangeId": "3", "label": "RANGE T5" },
        "locationTypeId": "0"
      },
      {
        "label": "Nettoyant Anti bacterien X 108 cps",
        "ean": "3 094 900 666 210",
        "clientCode": "",
        "family": "NETTOYANTS",
        "brand": "polident",
        "categoryId": "0",
        "rangeId": "3",
        "range": { "rangeId": "3", "label": "RANGE T5" },
        "locationTypeId": "0"
      },
      {
        "label": "Nettoyant Anti Bactérien X36 comprimés",
        "ean": "3 094 905 000 743",
        "clientCode": "",
        "family": "NETTOYANTS",
        "brand": "polident",
        "categoryId": "0",
        "rangeId": "3",
        "range": { "rangeId": "3", "label": "RANGE T5" },
        "locationTypeId": "0"
      },
      {
        "label": "Nettoyant Fraîcheur Intense X36 comprimés",
        "ean": "3 094 905 000 750",
        "clientCode": "",
        "family": "NETTOYANTS",
        "brand": "polident",
        "categoryId": "0",
        "rangeId": "3",
        "range": { "rangeId": "3", "label": "RANGE T5" },
        "locationTypeId": "0"
      },
      {
        "label": "Nettoyant Pureté Intégrale X36 comprimés",
        "ean": "3 094 905 000 736",
        "clientCode": "",
        "family": "NETTOYANTS",
        "brand": "polident",
        "categoryId": "0",
        "rangeId": "3",
        "range": { "rangeId": "3", "label": "RANGE T5" },
        "locationTypeId": "0"
      },
      {
        "label": "Nettoyant 3 minutes X36 comprimés",
        "ean": "3 094 905 001 009",
        "clientCode": "",
        "family": "NETTOYANTS",
        "brand": "polident",
        "categoryId": "0",
        "rangeId": "3",
        "range": { "rangeId": "3", "label": "RANGE T5" },
        "locationTypeId": "0"
      },
      {
        "label": "Nettoyant Total Action X36 comprimés",
        "ean": "5 054 563 022 929",
        "clientCode": "",
        "family": "NETTOYANTS",
        "brand": "polident",
        "categoryId": "0",
        "rangeId": "3",
        "range": { "rangeId": "3", "label": "RANGE T5" },
        "locationTypeId": "0"
      },
      {
        "label": "Crème adhésive Originale tube 40g",
        "ean": "3 094 905 000 804",
        "clientCode": "",
        "family": "FIXATIFS",
        "brand": "polident",
        "categoryId": "0",
        "rangeId": "3",
        "range": { "rangeId": "3", "label": "RANGE T5" },
        "locationTypeId": "0"
      },
      {
        "label": "Crème adhésive Original 70g",
        "ean": "3 094 905 000 309",
        "clientCode": "",
        "family": "FIXATIFS",
        "brand": "polident",
        "categoryId": "0",
        "rangeId": "3",
        "range": { "rangeId": "3", "label": "RANGE T5" },
        "locationTypeId": "0"
      },
      {
        "label": "Crème adhésive Soin et Tolérance 40g",
        "ean": "3 094 905 000 811",
        "clientCode": "",
        "family": "FIXATIFS",
        "brand": "polident",
        "categoryId": "0",
        "rangeId": "3",
        "range": { "rangeId": "3", "label": "RANGE T5" },
        "locationTypeId": "0"
      },
      {
        "label": "Crème adhésive Soin et Tolérance 70g",
        "ean": "3 094 905 000 729",
        "clientCode": "",
        "family": "FIXATIFS",
        "brand": "polident",
        "categoryId": "0",
        "rangeId": "3",
        "range": { "rangeId": "3", "label": "RANGE T5" },
        "locationTypeId": "0"
      },
      {
        "label": "Crème adhésive Total Action 40g",
        "ean": "5 054 563 003 386",
        "clientCode": "",
        "family": "FIXATIFS",
        "brand": "polident",
        "categoryId": "0",
        "rangeId": "3",
        "range": { "rangeId": "3", "label": "RANGE T5" },
        "locationTypeId": "0"
      },
      {
        "label": "Crème adhésive Total Action 70g",
        "ean": "5 054 563 019 523",
        "clientCode": "",
        "family": "FIXATIFS",
        "brand": "polident",
        "categoryId": "0",
        "rangeId": "3",
        "range": { "rangeId": "3", "label": "RANGE T5" },
        "locationTypeId": "0"
      },
      {
        "label": "Crème adhésive  Maximum Contrôle",
        "ean": "5 054 563 033 642",
        "clientCode": "",
        "family": "FIXATIFS",
        "brand": "polident",
        "categoryId": "0",
        "rangeId": "3",
        "range": { "rangeId": "3", "label": "RANGE T5" },
        "locationTypeId": "0"
      }
    ],
    "locationTypes": [
      {
        "locationTypeId": "0",
        "locationType": "L",
        "label": "Linéaire",
        "categories": [
          {
            "categoryId": "0",
            "label": "DENTAIRE",
            "ranges": []
          }
        ],
        "statements": [
          {
            "statementId": "0",
            "label": "Relevé",
            "displayType": "matrix",
            "conditions": [],
            "conditionStatus": true,
            "kpis": [
              {
                "kpiId": 12,
                "label": "NB DE VISITES",
                "source": "PDC",
                "question": "Facing",
                "answerFormat": "Num",
                "macro": false,
                "surveyDisplay": true,
                "dashboardDisplay": true,
                "createDate": 43347,
                "languages": "FR",
                "response": []
              },
              {
                "kpiId": 12,
                "label": "NB DE VISITES",
                "source": "PDC",
                "question": "Rupture",
                "answerFormat": "Booléen",
                "macro": false,
                "surveyDisplay": true,
                "dashboardDisplay": true,
                "createDate": 43347,
                "languages": "FR",
                "response": []
              },
              {
                "kpiId": 13,
                "label": "NB DE VISITES",
                "source": "PDC",
                "question": "Position",
                "answerFormat": "Num",
                "macro": false,
                "surveyDisplay": true,
                "dashboardDisplay": true,
                "createDate": 43347,
                "languages": "FR",
                "response": []
              },
              {
                "kpiId": 14,
                "label": "NB DE VISITES",
                "source": "PDC",
                "question": "Prix",
                "answerFormat": "Num",
                "macro": false,
                "surveyDisplay": true,
                "dashboardDisplay": true,
                "createDate": 43347,
                "languages": "FR",
                "response": []
              }
            ],
            "medias": [
              {
                "type": "Photo",
                "min": "2"
              },
              {
                "type": "Video",
                "min": "2"
              },
              {
                "type": "Audio",
                "min": "2"
              }
            ]
          },
          {
            "statementId": "1",
            "label": "Réimplantation",
            "displayType": "inline",
            "conditions": [
              {
                "conditionId": "1",
                "question": "As tu fait une implantation ?",
                "status": false
              }
            ],
            "conditionStatus": false,
            "kpis": [
              {
                "kpiId": 17,
                "label": "NB DE VISITES",
                "source": "PDC",
                "question": "Quel est le nombre de visites ?",
                "answerFormat": "Num",
                "macro": false,
                "surveyDisplay": true,
                "dashboardDisplay": true,
                "createDate": 43347,
                "languages": "FR",
                "response": []
              },
              {
                "kpiId": 42,
                "label": "MIAM",
                "source": "CUISINE",
                "question": "Le produit est-il présent ?",
                "answerFormat": "Booléen",
                "macro": false,
                "surveyDisplay": true,
                "dashboardDisplay": true,
                "createDate": 43347,
                "languages": "FR",
                "response": []
              },
              {
                "kpiId": 18,
                "label": "VISITES/JOUR",
                "source": "PDC",
                "question": "Moyenne de visites par jour",
                "answerFormat": "Num",
                "macro": false,
                "calculation": "= NB des visites / NB de jours théoriques de travail",
                "surveyDisplay": false,
                "dashboardDisplay": true,
                "createDate": 43347,
                "languages": "FR",
                "response": []
              }
            ],
            "medias": [
              {
                "type": "Photo",
                "min": "2"
              },
              {
                "type": "Video",
                "min": "2"
              },
              {
                "type": "Audio",
                "min": "2"
              }
            ]
          }
        ]
      }
    ]
  },
  "visit": {}
}
