{
	"ProjectName": "portail-web",
	"ProjectPath": "C:\\Users\\freddy.jopha\\_dev.stack\\portail\\react-client",
	"InitializationTime": "2018-04-12-11-07-35",
	"LastConfigurationTime": "2018-04-12-11-05-02",
	"LastNPMInstallTime": "",
	"FrontendLastBuildTime": "",
	"LastPublishTime": "",
	"BackendLastSyncTime": "2018-07-03-12-18-40",
	"BackendLastBuildTime": "2018-04-12-11-45-53",
	"BackendLastPushTime": "2018-04-12-11-46-02",
	"BackendLastPushSuccessful": true,
	"BackendProjectID": "38ab58bc-b2bd-45eb-83b1-262f8355be89",
	"BackendProjectName": "portail-web-2018-04-12-11-06-29",
	"BackendProjectConsoleUrl": "https://console.aws.amazon.com/mobilehub/home#/38ab58bc-b2bd-45eb-83b1-262f8355be89/build",
	"BackendProjectCreationTime": "2018-04-12T09:06:48.752Z",
	"BackendProjectLastUpdatedTime": "2018-04-12T09:18:46.488Z",
	"Framework": "react"
}