{
	"name": "portail-web-2018-04-12-11-06-29",
	"projectId": "38ab58bc-b2bd-45eb-83b1-262f8355be89",
	"region": "eu-west-1",
	"state": "NORMAL",
	"createdDate": "2018-04-12T09:06:48.752Z",
	"lastUpdatedDate": "2018-04-12T09:18:46.488Z",
	"consoleUrl": "https://console.aws.amazon.com/mobilehub/home#/38ab58bc-b2bd-45eb-83b1-262f8355be89/build",
	"resources": [
		{
			"type": "AWS::Pinpoint::AnalyticsApplication",
			"name": "portailweb20180412110629_MobileHub",
			"arn": "23a6a2204a5c4afda0ecf501e7618304",
			"feature": "analytics",
			"attributes": {
				"lastUpdateRequestID": "d5099feb-3e30-11e8-93b5-15c921d90e4d"
			}
		},
		{
			"type": "AWS::IAM::Policy",
			"name": "portailweb_mobileanalytics_MOBILEHUB_938993661",
			"arn": null,
			"feature": "analytics",
			"attributes": {
				"authType": "authenticated",
				"lastUpdateRequestID": "53dbbf56-3e31-11e8-b426-776b31054eaf",
				"role": "portailweb_auth_MOBILEHUB_938993661"
			}
		},
		{
			"type": "AWS::IAM::Policy",
			"name": "portailweb_mobileanalytics_MOBILEHUB_938993661",
			"arn": null,
			"feature": "analytics",
			"attributes": {
				"authType": "unauthenticated",
				"lastUpdateRequestID": "53dbbf56-3e31-11e8-b426-776b31054eaf",
				"role": "portailweb_unauth_MOBILEHUB_938993661"
			}
		},
		{
			"type": "AWS::Cognito::IdentityPool",
			"name": "portailweb_MOBILEHUB_938993661",
			"arn": "eu-west-1:7dad08a3-c6fb-4f6f-a0e9-92d58d39ad9e",
			"feature": "user-signin",
			"attributes": {
				"lastUpdateRequestID": "53dbbf56-3e31-11e8-b426-776b31054eaf",
				"poolid": "eu-west-1:7dad08a3-c6fb-4f6f-a0e9-92d58d39ad9e",
				"roleARNs": "arn:aws:iam::270559048379:role/portailweb_auth_MOBILEHUB_938993661,arn:aws:iam::270559048379:role/portailweb_unauth_MOBILEHUB_938993661"
			}
		},
		{
			"type": "AWS::IAM::Role",
			"name": "portailweb_smsverification_MOBILEHUB_938993661",
			"arn": "arn:aws:iam::270559048379:role/service-role/portailweb_smsverification_MOBILEHUB_938993661",
			"feature": "user-signin",
			"attributes": {
				"lastUpdateRequestID": "53dbbf56-3e31-11e8-b426-776b31054eaf",
				"user-pools-role-key": "user-pools-execution-role"
			}
		},
		{
			"type": "AWS::Cognito::UserPool",
			"name": "portailweb_userpool_MOBILEHUB_938993661",
			"arn": "eu-west-1_ba0Xs0fIO",
			"feature": "user-signin",
			"attributes": {
				"alias-attributes": "[\"email\"]",
				"lastUpdateRequestID": "53dbbf56-3e31-11e8-b426-776b31054eaf",
				"mfa-configuration": "OFF",
				"password-policy": "{\"minimumLength\":8,\"requireUppercase\":true,\"requireLowercase\":true,\"requireNumbers\":true,\"requireSymbols\":true}",
				"region": "eu-west-1",
				"user-pools-client-id": "2skp2vurc2v7t6tc7d4l0ev98j",
				"user-pools-client-secret": "89hpnvddp7qon0u8g7ttct2p3igjp046smlpc4482ln09o666s2",
				"user-pools-id": "eu-west-1_ba0Xs0fIO",
				"user-pools-web-client-id": "3ub5nmgg00b533j86ruon6458i"
			}
		},
		{
			"type": "AWS::IAM::Role",
			"name": "portailweb_auth_MOBILEHUB_938993661",
			"arn": "arn:aws:iam::270559048379:role/portailweb_auth_MOBILEHUB_938993661",
			"feature": "user-signin",
			"attributes": {
				"authType": "authenticated",
				"lastUpdateRequestID": "53dbbf56-3e31-11e8-b426-776b31054eaf"
			}
		},
		{
			"type": "AWS::IAM::Role",
			"name": "portailweb_unauth_MOBILEHUB_938993661",
			"arn": "arn:aws:iam::270559048379:role/portailweb_unauth_MOBILEHUB_938993661",
			"feature": "user-signin",
			"attributes": {
				"authType": "unauthenticated",
				"lastUpdateRequestID": "d5099feb-3e30-11e8-93b5-15c921d90e4d"
			}
		},
		{
			"type": "AWS::S3::Bucket",
			"name": "portailweb-hosting-mobilehub-938993661",
			"arn": null,
			"feature": "hosting",
			"attributes": {
				"lastUpdateRequestID": "d5099feb-3e30-11e8-93b5-15c921d90e4d",
				"region": "eu-west-1",
				"s3-bucket-console-url": "https://s3.console.aws.amazon.com/s3/buckets/portailweb-hosting-mobilehub-938993661",
				"s3-bucket-website-url": "https://s3.amazonaws.com/portailweb-hosting-mobilehub-938993661"
			}
		},
		{
			"type": "AWS::CloudFront::Distribution",
			"name": "dcb16zpq9jr6q.cloudfront.net",
			"arn": null,
			"feature": "hosting",
			"attributes": {
				"id": "EYIF07SJGB6II",
				"lastUpdateRequestID": "d5099feb-3e30-11e8-93b5-15c921d90e4d"
			}
		},
		{
			"type": "AWS::IAM::Policy",
			"name": "portailweb_hosting_MOBILEHUB_938993661",
			"arn": null,
			"feature": "hosting",
			"attributes": {
				"authType": "authenticated",
				"lastUpdateRequestID": "53dbbf56-3e31-11e8-b426-776b31054eaf",
				"role": "portailweb_auth_MOBILEHUB_938993661"
			}
		},
		{
			"type": "AWS::IAM::Policy",
			"name": "portailweb_hosting_MOBILEHUB_938993661",
			"arn": null,
			"feature": "hosting",
			"attributes": {
				"authType": "unauthenticated",
				"lastUpdateRequestID": "53dbbf56-3e31-11e8-b426-776b31054eaf",
				"role": "portailweb_unauth_MOBILEHUB_938993661"
			}
		},
		{
			"type": "AWS::S3::Bucket",
			"name": "portailweb-deployments-mobilehub-938993661",
			"arn": null,
			"feature": "common",
			"attributes": {
				"region": "eu-west-1",
				"s3-bucket-console-url": "https://s3.console.aws.amazon.com/s3/buckets/portailweb-deployments-mobilehub-938993661"
			}
		},
		{
			"type": "AWS::CloudFormation::Stack",
			"name": "Development",
			"arn": null,
			"feature": "cloud-api",
			"attributes": {
				"primary": "true",
				"region": "eu-west-1",
				"stateSummary": "NOT_YET_DEPLOYED"
			}
		}
	]
}